AR_TESTS/ALU_TEST_AR4/logs/cve2_alu.vcd
$version Generated by VerilatedVcd $end
$timescale 1ns $end

 $scope module TOP $end
  $var wire 34 Q adder_result_ext_o [33:0] $end
  $var wire 32 P adder_result_o [31:0] $end
  $var wire  1 B clk_i $end
  $var wire  1 T comparison_result_o $end
  $var wire 32 M imd_val_d_o[0] [31:0] $end
  $var wire 32 N imd_val_d_o[1] [31:0] $end
  $var wire 32 K imd_val_q_i[0] [31:0] $end
  $var wire 32 L imd_val_q_i[1] [31:0] $end
  $var wire  2 O imd_val_we_o [1:0] $end
  $var wire  1 E instr_first_cycle_i $end
  $var wire  1 U is_equal_result_o $end
  $var wire 33 F multdiv_operand_a_i [32:0] $end
  $var wire 33 H multdiv_operand_b_i [32:0] $end
  $var wire  1 J multdiv_sel_i $end
  $var wire 32 C operand_a_i [31:0] $end
  $var wire 32 D operand_b_i [31:0] $end
  $var wire  7 A operator_i [6:0] $end
  $var wire 32 S result_o [31:0] $end
  $scope module cve2_alu $end
   $var wire 32 [ RV32B [31:0] $end
   $var wire 33 & adder_in_a [32:0] $end
   $var wire 33 ( adder_in_b [32:0] $end
   $var wire  1 \ adder_op_a_shift1 $end
   $var wire  1 \ adder_op_a_shift2 $end
   $var wire  1 \ adder_op_a_shift3 $end
   $var wire  1 % adder_op_b_negate $end
   $var wire 32 P adder_result [31:0] $end
   $var wire 34 Q adder_result_ext_o [33:0] $end
   $var wire 32 P adder_result_o [31:0] $end
   $var wire  5 7 bfp_len [4:0] $end
   $var wire 32 ] bfp_mask [31:0] $end
   $var wire 32 ] bfp_mask_rev [31:0] $end
   $var wire  5 Z bfp_off [4:0] $end
   $var wire  1 \ bfp_op $end
   $var wire 32 ] bfp_result [31:0] $end
   $var wire  6 ^ bitcnt_result [5:0] $end
   $var wire 32 ] butterfly_result [31:0] $end
   $var wire  1 9 bwlogic_and $end
   $var wire 32 < bwlogic_and_result [31:0] $end
   $var wire  1 # bwlogic_op_b_negate $end
   $var wire 32 : bwlogic_operand_b [31:0] $end
   $var wire  1 8 bwlogic_or $end
   $var wire 32 ; bwlogic_or_result [31:0] $end
   $var wire 32 > bwlogic_result [31:0] $end
   $var wire 32 = bwlogic_xor_result [31:0] $end
   $var wire  1 B clk_i $end
   $var wire 32 ] clmul_result [31:0] $end
   $var wire  1 , cmp_result $end
   $var wire  1 + cmp_signed $end
   $var wire  1 T comparison_result_o $end
   $var wire 32 M imd_val_d_o[0] [31:0] $end
   $var wire 32 N imd_val_d_o[1] [31:0] $end
   $var wire 32 K imd_val_q_i[0] [31:0] $end
   $var wire 32 L imd_val_q_i[1] [31:0] $end
   $var wire  2 O imd_val_we_o [1:0] $end
   $var wire  1 E instr_first_cycle_i $end
   $var wire 32 ] invbutterfly_result [31:0] $end
   $var wire  1 U is_equal $end
   $var wire  1 U is_equal_result_o $end
   $var wire  1 * is_greater_equal $end
   $var wire 32 ] minmax_result [31:0] $end
   $var wire 33 F multdiv_operand_a_i [32:0] $end
   $var wire 33 H multdiv_operand_b_i [32:0] $end
   $var wire  1 J multdiv_sel_i $end
   $var wire 32 ] multicycle_result [31:0] $end
   $var wire 32 C operand_a_i [31:0] $end
   $var wire 32 $ operand_a_rev [31:0] $end
   $var wire 32 D operand_b_i [31:0] $end
   $var wire 33 V operand_b_neg [32:0] $end
   $var wire  7 A operator_i [6:0] $end
   $var wire 32 ] pack_result [31:0] $end
   $var wire 32 S result_o [31:0] $end
   $var wire 32 ] rev_result [31:0] $end
   $var wire 32 ] sext_result [31:0] $end
   $var wire  6 . shift_amt [5:0] $end
   $var wire  6 Y shift_amt_compl [5:0] $end
   $var wire  1 X shift_arith $end
   $var wire  1 \ shift_funnel $end
   $var wire  1 - shift_left $end
   $var wire  1 \ shift_ones $end
   $var wire 32 / shift_operand [31:0] $end
   $var wire 32 5 shift_result [31:0] $end
   $var wire 33 2 shift_result_ext [32:0] $end
   $var wire 33 0 shift_result_ext_signed [32:0] $end
   $var wire 32 6 shift_result_rev [31:0] $end
   $var wire  1 \ shift_sbmode $end
   $var wire 32 ] shuffle_result [31:0] $end
   $var wire 32 ] singlebit_result [31:0] $end
   $var wire  1 B unused $end
   $var wire  1 \ unused_shift_amt_compl $end
   $var wire  1 4 unused_shift_result_ext $end
   $var wire 32 ] xperm_result [31:0] $end
   $scope module g_no_alu_rvb $end
    $var wire 32 ] unused_butterfly_result [31:0] $end
    $var wire 32 ? unused_imd_val_q[0] [31:0] $end
    $var wire 32 @ unused_imd_val_q[1] [31:0] $end
    $var wire 32 ] unused_invbutterfly_result [31:0] $end
   $upscope $end
   $scope module unnamedblk1 $end
    $var wire 32 _ i [31:0] $end
   $upscope $end
  $upscope $end
  $scope module cve2_pkg $end
   $var wire 32 o CSR_MARCHID_VALUE [31:0] $end
   $var wire 32 ] CSR_MCONFIGPTR_VALUE [31:0] $end
   $var wire 32 i CSR_MEIX_BIT [31:0] $end
   $var wire 32 n CSR_MFIX_BIT_HIGH [31:0] $end
   $var wire 32 ` CSR_MFIX_BIT_LOW [31:0] $end
   $var wire 32 ] CSR_MIMPID_VALUE [31:0] $end
   $var wire  2 m CSR_MISA_MXL [1:0] $end
   $var wire 32 b CSR_MSECCFG_MML_BIT [31:0] $end
   $var wire 32 c CSR_MSECCFG_MMWP_BIT [31:0] $end
   $var wire 32 d CSR_MSECCFG_RLB_BIT [31:0] $end
   $var wire 32 g CSR_MSIX_BIT [31:0] $end
   $var wire 32 g CSR_MSTATUS_MIE_BIT [31:0] $end
   $var wire 32 h CSR_MSTATUS_MPIE_BIT [31:0] $end
   $var wire 32 j CSR_MSTATUS_MPP_BIT_HIGH [31:0] $end
   $var wire 32 i CSR_MSTATUS_MPP_BIT_LOW [31:0] $end
   $var wire 32 k CSR_MSTATUS_MPRV_BIT [31:0] $end
   $var wire 32 l CSR_MSTATUS_TW_BIT [31:0] $end
   $var wire 32 h CSR_MTIX_BIT [31:0] $end
   $var wire 32 ] CSR_MVENDORID_VALUE [31:0] $end
   $var wire 12 f CSR_OFF_PMP_ADDR [11:0] $end
   $var wire 12 e CSR_OFF_PMP_CFG [11:0] $end
   $var wire 32 a PMP_CFG_W [31:0] $end
   $var wire 32 d PMP_D [31:0] $end
   $var wire 32 b PMP_I [31:0] $end
   $var wire 32 c PMP_I2 [31:0] $end
   $var wire 32 ` PMP_MAX_REGIONS [31:0] $end
  $upscope $end
 $upscope $end
$enddefinitions $end


#0
0#
b01100011110001001101111001001100 $
0%
b001100100111101100100011110001101 &
b011001000011110010011000011010010 (
0*
0+
0,
1-
b001001 .
b01100011110001001101111001001100 /
b000000000001100011110001001101111 0
b000000000001100011110001001101111 2
04
b11110110010001111000110000000000 5
b11110110010001111000110000000000 6
b00100 7
08
09
b01100100001111001001100001101001 :
b01110110011111111011101111101111 ;
b00100000001110000000000001000000 <
b01010110010001111011101110101111 =
b01010110010001111011101110101111 >
b00000000000000000000000000000000 ?
b00000000000000000000000000000000 @
b0001010 A
0B
b00110010011110110010001111000110 C
b01100100001111001001100001101001 D
0E
b000000000000000000000000000000000 F
b000000000000000000000000000000000 H
0J
b00000000000000000000000000000000 K
b00000000000000000000000000000000 L
b00000000000000000000000000000000 M
b00000000000000000000000000000000 N
b00 O
b10010110101101111011110000101111 P
b0100101101011011110111100001011111 Q
b11110110010001111000110000000000 S
0T
0U
b100110111100001101100111100101101 V
0X
b001001 Y
b11100 Z
b00000000000000000000000000000000 [
0\
b00000000000000000000000000000000 ]
b000000 ^
b00000000000000000000000000100000 _
b00000000000000000000000000010000 `
b00000000000000000000000000001000 a
b00000000000000000000000000000000 b
b00000000000000000000000000000001 c
b00000000000000000000000000000010 d
b001110100000 e
b001110110000 f
b00000000000000000000000000000011 g
b00000000000000000000000000000111 h
b00000000000000000000000000001011 i
b00000000000000000000000000001100 j
b00000000000000000000000000010001 k
b00000000000000000000000000010101 l
b01 m
b00000000000000000000000000011110 n
b00000000000000000000000000010110 o
#1
#2
#3
#4
#5
#6
#7
#8
#9
#10
#11
#12
#13
#14
#15
#16
#17
#18
#19
#20
b10001010001110110000110100101110 $
b011101001011000011011100010100011 &
b000110010100100101011100111111110 (
0-
b011111 .
b01110100101100001101110001010001 /
b000000000000000000000000000000000 0
b000000000000000000000000000000000 2
b00000000000000000000000000000000 5
b00000000000000000000000000000000 6
b01001 7
18
b00011001010010010101110011111111 :
b01111101111110011101110011111111 ;
b00010000000000000101110001010001 <
b01101101111110011000000010101110 =
b01111101111110011101110011111111 >
b0000011 A
b01110100101100001101110001010001 C
b00011001010010010101110011111111 D
b10001101111110100011100101010000 P
b0100011011111101000111001010100001 Q
b01111101111110011101110011111111 S
b111001101011011010100011000000001 V
b011111 Y
b01001 Z
#21
#22
#23
#24
#25
#26
#27
#28
#29
#30
#31
#32
#33
#34
#35
#36
#37
#38
#39
#40
b00110111000110101010101001000110 $
1%
b011000100101010101011000111011001 &
b110111000111000111100000110101101 (
1*
1+
1,
b001001 .
b01100010010101010101100011101100 /
b000000000001100010010101010101100 0
b000000000001100010010101010101100 2
b00000000001100010010101010101100 5
b00110101010101001000110000000000 6
b00011 7
08
b00100011100011100001111100101001 :
b01100011110111110101111111101101 ;
b00100010000001000001100000101000 <
b01000001110110110100011111000101 =
b01000001110110110100011111000101 >
b0011011 A
b01100010010101010101100011101100 C
b00100011100011100001111100101001 D
b00111110110001110011100111000011 P
b1001111101100011100111001110000110 Q
b00000000000000000000000000000001 S
1T
b110111000111000111100000110101101 V
b001001 Y
b01110 Z
#41
#42
#43
#44
#45
#46
#47
#48
#49
#50
#51
#52
#53
#54
#55
#56
#57
#58
#59
#60
b01011101000110101101100010111100 $
b001111010001101101011000101110101 &
b101011111000000100101000010101001 (
0*
0+
b001011 .
b00111101000110110101100010111010 /
b000000000000001111010001101101011 0
b000000000000001111010001101101011 2
b00000000000001111010001101101011 5
b11010110110001011110000000000000 6
b10000 7
b01010000011111101101011110101011 :
b01111101011111111101111110111011 ;
b00010000000110100101000010101010 <
b01101101011001011000111100010001 =
b01101101011001011000111100010001 >
b0011110 A
b00111101000110110101100010111010 C
b01010000011111101101011110101011 D
b11101100100111001000000100001111 P
b0111011001001110010000001000011110 Q
b101011111000000100101000010101001 V
b001011 Y
b11110 Z
#61
#62
#63
#64
#65
#66
#67
#68
#69
#70
#71
#72
#73
#74
#75
#76
#77
#78
#79
#80
b11011111011110001110110110000010 $
0%
b010000011011011100011110111110111 &
b011110011110001010101001111000110 (
0,
b000011 .
b01000001101101110001111011111011 /
b000001000001101101110001111011111 0
b000001000001101101110001111011111 2
b00001000001101101110001111011111 5
b11111011110001110110110000010000 6
b01001 7
b01111001111000101010100111100011 :
b01111001111101111011111111111011 ;
b01000001101000100000100011100011 <
b00111000010101011011011100011000 =
b00111000010101011011011100011000 >
b0000010 A
b01000001101101110001111011111011 C
b01111001111000101010100111100011 D
b10111011100110011100100011011110 P
b0101110111001100111001000110111101 Q
b00111000010101011011011100011000 S
0T
b100001100001110101010110000111001 V
b000011 Y
b00010 Z
#81
#82
#83
#84
#85
#86
#87
#88
#89
#90
#91
#92
#93
#94
#95
#96
#97
#98
#99
#100
b00111110000000001111101010001010 $
b010100010101111100000000011111001 &
b010110111101000001100010110000100 (
b000010 .
b01010001010111110000000001111100 /
b000010100010101111100000000011111 0
b000010100010101111100000000011111 2
b00010100010101111100000000011111 5
b11111000000000111110101000101000 6
b01011 7
b01011011110100000110001011000010 :
b01011011110111110110001011111110 ;
b01010001010100000000000001000000 <
b00001010100011110110001010111110 =
b00001010100011110110001010111110 >
b0001001 A
b01010001010111110000000001111100 C
b01011011110100000110001011000010 D
b10101101001011110110001100111110 P
b0101011010010111101100011001111101 Q
b00010100010101111100000000011111 S
b101001000010111110011101001111011 V
b000010 Y
b10000 Z
#101
#102
#103
#104
#105
#106
#107
#108
#109
#110
#111
#112
#113
#114
#115
#116
#117
#118
#119
#120
b00011111111001001000110110110010 $
b010011011011000100100111111110001 &
b000000100001011000100011000110110 (
1*
b011011 .
b01001101101100010010011111111000 /
b000000000000000000000000000001001 0
b000000000000000000000000000001001 2
b00000000000000000000000000001001 5
b10010000000000000000000000000000 6
b00010 7
19
b00000010000101100010001100011011 :
b01001111101101110010011111111011 ;
b00000000000100000010001100011000 <
b01001111101001110000010011100011 =
b00000000000100000010001100011000 >
b0000100 A
b01001101101100010010011111111000 C
b00000010000101100010001100011011 D
b01001111110001110100101100010011 P
b0010011111100011101001011000100111 Q
b00000000000100000010001100011000 S
b111111011110100111011100111001001 V
b011011 Y
b10110 Z
#121
#122
#123
#124
#125
#126
#127
#128
#129
#130
#131
#132
#133
#134
#135
#136
#137
#138
#139
#140
b11100111101100110000100110001000 $
1%
b000100011001000011001101111001111 &
b100110010001000010111100011100101 (
0*
1+
1,
b001101 .
b00010001100100001100110111100111 /
b000000000000000001000110010000110 0
b000000000000000001000110010000110 2
b00000000000000001000110010000110 5
b01100001001100010000000000000000 6
b00110 7
09
b01100110111011110100001110001101 :
b01110111111111111100111111101111 ;
b00000000100000000100000110000101 <
b01110111011111111000111001101010 =
b01110111011111111000111001101010 >
b0011001 A
b00010001100100001100110111100111 C
b01100110111011110100001110001101 D
b10101010101000011000101001011010 P
b0101010101010000110001010010110100 Q
b00000000000000000000000000000001 S
1T
b100110010001000010111100011100101 V
b001101 Y
b01111 Z
#141
#142
#143
#144
#145
#146
#147
#148
#149
#150
#151
#152
#153
#154
#155
#156
#157
#158
#159
#160
b01011010101001000100101011001100 $
0%
b001100110101001000100101010110101 &
b000100001001110011111001001011100 (
1*
0+
0,
b001110 .
b00110011010100100010010101011010 /
b000000000000000001100110101001000 0
b000000000000000001100110101001000 2
b00000000000000001100110101001000 5
b00010010101100110000000000000000 6
b10000 7
b00010000100111001111100100101110 :
b00110011110111101111110101111110 ;
b00010000000100000010000100001010 <
b00100011110011101101110001110100 =
b00100011110011101101110001110100 >
b0001001 A
b00110011010100100010010101011010 C
b00010000100111001111100100101110 D
b01000011111011110001111010001000 P
b0010000111110111100011110100010001 Q
b00000000000000001100110101001000 S
0T
b111011110110001100000110110100011 V
b001110 Y
b11100 Z
#161
#162
#163
#164
#165
#166
#167
#168
#169
#170
#171
#172
#173
#174
#175
#176
#177
#178
#179
#180
b11001100010000110011101111111110 $
b011111111101110011000010001100111 &
b000110111110111111010111100111110 (
0*
b011111 .
b01111111110111001100001000110011 /
b000000000000000000000000000000000 0
b000000000000000000000000000000000 2
b00000000000000000000000000000000 5
b00000000000000000000000000000000 6
b01011 7
18
b00011011111011111101011110011111 :
b01111111111111111101011110111111 ;
b00011011110011001100001000010011 <
b01100100001100110001010110101100 =
b01111111111111111101011110111111 >
b0000011 A
b01111111110111001100001000110011 C
b00011011111011111101011110011111 D
b10011011110011001001100111010010 P
b0100110111100110010011001110100101 Q
b01111111111111111101011110111111 S
b111001000001000000101000011000001 V
b011111 Y
b01111 Z
#181
#182
#183
#184
#185
#186
#187
#188
#189
#190
#191
#192
#193
#194
#195
#196
#197
#198
#199
#200
b01011001111000000001011011010110 $
1%
b011010110110100000000111100110101 &
b101100011001010100000100100110011 (
1*
b000110 .
b01101011011010000000011110011010 /
b000000001101011011010000000011110 0
b000000001101011011010000000011110 2
b00000001101011011010000000011110 5
b01111000000001011011010110000000 6
b01110 7
08
b01001110011010101111101101100110 :
b01101111011010101111111111111110 ;
b01001010011010000000001100000010 <
b00100101000000101111110011111100 =
b00100101000000101111110011111100 >
b0011010 A
b01101011011010000000011110011010 C
b01001110011010101111101101100110 D
b00011100111111010000110000110100 P
b1000111001111110100001100001101000 Q
b00000000000000000000000000000000 S
b101100011001010100000100100110011 V
b000110 Y
b01010 Z
#201
#202
#203
#204
#205
#206
#207
#208
#209
#210
#211
#212
#213
#214
#215
#216
#217
#218
#219
#220
b10110000000010101101100110001010 $
0%
b010100011001101101010000000011011 &
b010000110001101111010111101101110 (
0*
b010111 .
b01010001100110110101000000001101 /
b000000000000000000000000010100011 0
b000000000000000000000000010100011 2
b00000000000000000000000010100011 5
b11000101000000000000000000000000 6
b00011 7
b01000011000110111101011110110111 :
b01010011100110111101011110111111 ;
b01000001000110110101000000000101 <
b00010010100000001000011110111010 =
b00010010100000001000011110111010 >
b0000010 A
b01010001100110110101000000001101 C
b01000011000110111101011110110111 D
b10010100101101110010011111000100 P
b0100101001011011100100111110001001 Q
b00010010100000001000011110111010 S
b101111001110010000101000010010001 V
b010111 Y
b11011 Z
#221
#222
#223
#224
#225
#226
#227
#228
#229
#230
#231
#232
#233
#234
#235
#236
#237
#238
#239
#240
b00011010001001111100000100111110 $
1%
b011111001000001111100100010110001 &
b110110101000111011001111010111001 (
1*
b000011 .
b01111100100000111110010001011000 /
b000001111100100000111110010001011 0
b000001111100100000111110010001011 2
b00001111100100000111110010001011 5
b11010001001111100000100111110000 6
b00101 7
b00100101011100010011000010100011 :
b01111101111100111111010011111011 ;
b00100100000000010010000000000000 <
b01011001111100101101010011111011 =
b01011001111100101101010011111011 >
b0000001 A
b01111100100000111110010001011000 C
b00100101011100010011000010100011 D
b01010111000100101011001110110101 P
b1010101110001001010110011101101010 Q
b01010111000100101011001110110101 S
b110110101000111011001111010111001 V
b000011 Y
b10001 Z
#241
#242
#243
#244
#245
#246
#247
#248
#249
#250
#251
#252
#253
#254
#255
#256
#257
#258
#259
#260
b10100100100001100011011011000010 $
b010000110110110001100001001001011 &
b100111010111001101110110101000101 (
0*
1+
b011101 .
b01000011011011000110000100100101 /
b000000000000000000000000000000010 0
b000000000000000000000000000000010 2
b00000000000000000000000000000010 5
b01000000000000000000000000000000 6
b00010 7
b01100010100011001000100101011101 :
b01100011111011001110100101111101 ;
b01000010000011000000000100000101 <
b00100001111000001110100001111000 =
b00100001111000001110100001111000 >
b0011011 A
b01000011011011000110000100100101 C
b01100010100011001000100101011101 D
b11100000110111111101011111001000 P
b0111000001101111111010111110010000 Q
b00000000000000000000000000000000 S
b100111010111001101110110101000101 V
b011101 Y
b01100 Z
#261
#262
#263
#264
#265
#266
#267
#268
#269
#270
#271
#272
#273
#274
#275
#276
#277
#278
#279
#280
b11101000110001011011100001001110 $
0%
b011100100001110110100011000101111 &
b001001000100001110101000010110000 (
0+
b011000 .
b01110010000111011010001100010111 /
b000000000000000000000000001110010 0
b000000000000000000000000001110010 2
b00000000000000000000000001110010 5
b01001110000000000000000000000000 6
b00100 7
b00100100010000111010100001011000 :
b01110110010111111010101101011111 ;
b00100000000000011010000000010000 <
b01010110010111100000101101001111 =
b01010110010111100000101101001111 >
b0001000 A
b01110010000111011010001100010111 C
b00100100010000111010100001011000 D
b10010110011000010100101101101111 P
b0100101100110000101001011011011111 Q
b00000000000000000000000001110010 S
b110110111011110001010111101001111 V
1X
b011000 Y
b00011 Z
#281
#282
#283
#284
#285
#286
#287
#288
#289
#290
#291
#292
#293
#294
#295
#296
#297
#298
#299
#300
b01111010001000011100011011100110 $
1%
b011001110110001110000100010111101 &
b100010100101110101010111001010111 (
1,
b010100 .
b01100111011000111000010001011110 /
b000000000000000000000011001110110 0
b000000000000000000000011001110110 2
b00000000000000000000011001110110 5
b01101110011000000000000000000000 6
b00101 7
b01110101101000101010100011010100 :
b01110111111000111010110011011110 ;
b01100101001000101000000001010100 <
b00010010110000010010110010001010 =
b00010010110000010010110010001010 >
b0011010 A
b01100111011000111000010001011110 C
b01110101101000101010100011010100 D
b11110001110000001101101110001010 P
b0111100011100000011011011100010100 Q
b00000000000000000000000000000001 S
1T
b100010100101110101010111001010111 V
0X
b010100 Y
b00010 Z
#301
#302
#303
#304
#305
#306
#307
#308
#309
#310
#311
#312
#313
#314
#315
#316
#317
#318
#319
#320
b01001101001100011100000110011110 $
b011110011000001110001100101100101 &
b101111001010110000101111001100101 (
1*
b001101 .
b01111001100000111000110010110010 /
b000000000000000111100110000011100 0
b000000000000000111100110000011100 2
b00000000000000111100110000011100 5
b00111000001100111100000000000000 6
b00011 7
b01000011010100111101000011001101 :
b01111011110100111101110011111111 ;
b01000001000000111000000010000000 <
b00111010110100000101110001111111 =
b00111010110100000101110001111111 >
b0011100 A
b01111001100000111000110010110010 C
b01000011010100111101000011001101 D
b00110110001011111011101111100101 P
b1001101100010111110111011111001010 Q
b101111001010110000101111001100101 V
b001101 Y
b10011 Z
#321
#322
#323
#324
#325
#326
#327
#328
#329
#330
#331
#332
#333
#334
#335
#336
#337
#338
#339
#340
b11011001011011100101100100011000 $
0%
b000110001001101001110110100110111 &
b010101001110010010011110101101000 (
0,
b010100 .
b00011000100110100111011010011011 /
b000000000000000000000000110001001 0
b000000000000000000000000110001001 2
b00000000000000000000000110001001 5
b10010001100000000000000000000000 6
b00100 7
b01010100111001001001111010110100 :
b01011100111111101111111010111111 ;
b00010000100000000001011010010000 <
b01001100011111101110100000101111 =
b01001100011111101110100000101111 >
b0001001 A
b00011000100110100111011010011011 C
b01010100111001001001111010110100 D
b01101101011111110001010101001111 P
b0011011010111111100010101010011111 Q
b00000000000000000000000110001001 S
0T
b101010110001101101100001010010111 V
b010100 Y
b00100 Z
#341
#342
#343
#344
#345
#346
#347
#348
#349
#350
#351
#352
#353
#354
#355
#356
#357
#358
#359
#360
b10001000011000010001010100110100 $
b001011001010100010000110000100011 &
b000010000011011011000100000011100 (
b001110 .
b00101100101010001000011000010001 /
b000000000000000001011001010100010 0
b000000000000000001011001010100010 2
b00000000000000001011001010100010 5
b01000101010011010000000000000000 6
b01000 7
19
b00001000001101101100010000001110 :
b00101100101111101100011000011111 ;
b00001000001000001000010000000000 <
b00100100100111100100001000011111 =
b00001000001000001000010000000000 >
b0000100 A
b00101100101010001000011000010001 C
b00001000001101101100010000001110 D
b00110100110111110100101000011111 P
b0001101001101111101001010000111111 Q
b00001000001000001000010000000000 S
b111101111100100100111011111100011 V
b001110 Y
b10110 Z
#361
#362
#363
#364
#365
#366
#367
#368
#369
#370
#371
#372
#373
#374
#375
#376
#377
#378
#379
#380
b00101110000111111010100101011100 $
b001110101001010111111000011101001 &
b000010000001001110000110010000010 (
b000001 .
b00111010100101011111100001110100 /
b000011101010010101111110000111010 0
b000011101010010101111110000111010 2
b00011101010010101111110000111010 5
b01011100001111110101001010111000 6
09
b00001000000100111000011001000001 :
b00111010100101111111111001110101 ;
b00001000000100011000000001000000 <
b00110010100001100111111000110101 =
b00110010100001100111111000110101 >
b0000010 A
b00111010100101011111100001110100 C
b00001000000100111000011001000001 D
b01000010101010010111111010110101 P
b0010000101010100101111110101101011 Q
b00110010100001100111111000110101 S
b111101111110110001111001101111101 V
b000001 Y
b10011 Z
#381
#382
#383
#384
#385
#386
#387
#388
#389
#390
#391
#392
#393
#394
#395
#396
#397
#398
#399
#400
b10111100101111011011110000111110 $
1%
b011111000011110110111101001111011 &
b100011001000010001110010001000111 (
b011100 .
b01111100001111011011110100111101 /
b000000000000000000000000000000111 0
b000000000000000000000000000000111 2
b00000000000000000000000000000111 5
b11100000000000000000000000000000 6
b00011 7
b01110011011110111000110111011100 :
b01111111011111111011110111111101 ;
b01110000001110011000110100011100 <
b00001111010001100011000011100001 =
b00001111010001100011000011100001 >
b0000001 A
b01111100001111011011110100111101 C
b01110011011110111000110111011100 D
b00001000110000100010111101100001 P
b1000010001100001000101111011000010 Q
b00001000110000100010111101100001 S
b100011001000010001110010001000111 V
b011100 Y
b11011 Z
#401
#402
#403
#404
#405
#406
#407
#408
#409
#410
#411
#412
#413
#414
#415
#416
#417
#418
#419
#420
b00001110010110000100010001000100 $
0%
b001000100010001000011010011100001 &
b010001010001011011011101111010010 (
1-
b001001 .
b00001110010110000100010001000100 /
b000000000000001110010110000100010 0
b000000000000001110010110000100010 2
b01000100001101001110000000000000 5
b01000100001101001110000000000000 6
b00101 7
b01000101000101101101110111101001 :
b01100111001101101101111111111001 ;
b00000000000000100001100001100000 <
b01100111001101001100011110011001 =
b01100111001101001100011110011001 >
b0001010 A
b00100010001000100001101001110000 C
b01000101000101101101110111101001 D
b01100111001110001111100001011001 P
b0011001110011100011111000010110011 Q
b01000100001101001110000000000000 S
b101110101110100100100010000101101 V
b001001 Y
b10110 Z
#421
#422
#423
#424
#425
#426
#427
#428
#429
#430
#431
#432
#433
#434
#435
#436
#437
#438
#439
#440
b10000101001010111111001010000110 $
1%
b011000010100111111010100101000011 &
b101111100110010100111101101111101 (
1+
0-
b000001 .
b01100001010011111101010010100001 /
b000110000101001111110101001010000 0
b000110000101001111110101001010000 2
b00110000101001111110101001010000 5
b00001010010101111110010100001100 6
b00001 7
b01000001100110101100001001000001 :
b01100001110111111101011011100001 ;
b01000001000010101100000000000001 <
b00100000110101010001011011100000 =
b00100000110101010001011011100000 >
b0101011 A
b01100001010011111101010010100001 C
b01000001100110101100001001000001 D
b00011111101101010001001001100000 P
b1000111111011010100010010011000000 Q
b00000000000000000000000000000000 S
b101111100110010100111101101111101 V
b000001 Y
b11010 Z
#441
#442
#443
#444
#445
#446
#447
#448
#449
#450
#451
#452
#453
#454
#455
#456
#457
#458
#459
#460
b00111111101101011101000000100010 $
b010001000000101110101101111111001 &
b111110101111100011011100100110001 (
0+
b000111 .
b01000100000010111010110111111100 /
b000000000100010000001011101011011 0
b000000000100010000001011101011011 2
b00000000100010000001011101011011 5
b11011010111010000001000100000000 6
b00101 7
b00000101000001110010001101100111 :
b01000101000011111010111111111111 ;
b00000100000000110010000101100100 <
b01000001000011001000111010011011 =
b01000001000011001000111010011011 >
b0000001 A
b01000100000010111010110111111100 C
b00000101000001110010001101100111 D
b00111111000001001000101010010101 P
b1001111110000010010001010100101010 Q
b00111111000001001000101010010101 S
b111110101111100011011100100110001 V
b000111 Y
b00111 Z
#461
#462
#463
#464
#465
#466
#467
#468
#469
#470
#471
#472
#473
#474
#475
#476
#477
#478
#479
#480
b10000000111110100110001011101110 $
b011101110100011001011111000000011 &
b100010001101101100111001100000011 (
1+
b011110 .
b01110111010001100101111100000001 /
b000000000000000000000000000000001 0
b000000000000000000000000000000001 2
b00000000000000000000000000000001 5
b10000000000000000000000000000000 6
b00111 7
b01110111001001001100011001111110 :
b01110111011001101101111101111111 ;
b01110111000001000100011000000000 <
b00000000011000101001100101111111 =
b00000000011000101001100101111111 >
b0101011 A
b01110111010001100101111100000001 C
b01110111001001001100011001111110 D
b00000000001000011001100010000011 P
b1000000000010000110011000100000110 Q
b00000000000000000000000000000000 S
b100010001101101100111001100000011 V
b011110 Y
b00100 Z
#481
#482
#483
#484
#485
#486
#487
#488
#489
#490
#491
#492
#493
#494
#495
#496
#497
#498
#499
#500
b01010111100111011100011000100100 $
0%
b001001000110001110111001111010101 &
b010111101000100001001010110111000 (
0*
0+
1-
b011100 .
b01010111100111011100011000100100 /
b000000000000000000000000000000101 0
b000000000000000000000000000000101 2
b10100000000000000000000000000000 5
b10100000000000000000000000000000 6
b01110 7
b01011110100010000100101011011100 :
b01111110111010111111101111111110 ;
b00000100000000000000100011001000 <
b01111010111010111111001100110110 =
b01111010111010111111001100110110 >
b0001010 A
b00100100011000111011100111101010 C
b01011110100010000100101011011100 D
b10000010111011000000010011000110 P
b0100000101110110000000100110001101 Q
b10100000000000000000000000000000 S
b101000010111011110110101001000111 V
b011100 Y
b01000 Z
#501
#502
#503
#504
#505
#506
#507
#508
#509
#510
#511
#512
#513
#514
#515
#516
#517
#518
#519
#520
b01101001111011101000101010110100 $
1%
b001011010101000101110111100101101 &
b101001111111010000101000011100001 (
0-
b001111 .
b00101101010100010111011110010110 /
b000000000000000000101101010100010 0
b000000000000000000101101010100010 2
b00000000000000000101101010100010 5
b01000101010110100000000000000000 6
b01000 7
b01011000000010111101011110001111 :
b01111101010110111111011110011111 ;
b00001000000000010101011110000110 <
b01110101010110101010000000011001 =
b01110101010110101010000000011001 >
b0011100 A
b00101101010100010111011110010110 C
b01011000000010111101011110001111 D
b11010101010001011010000000000111 P
b0110101010100010110100000000001110 Q
b00000000000000000000000000000000 S
b101001111111010000101000011100001 V
b001111 Y
b01011 Z
#521
#522
#523
#524
#525
#526
#527
#528
#529
#530
#531
#532
#533
#534
#535
#536
#537
#538
#539
#540
b00111010000110101010101000011100 $
b001110000101010101011000010111001 &
b100011110101100110110001110101011 (
1+
1,
b001010 .
b00111000010101010101100001011100 /
b000000000000011100001010101010110 0
b000000000000011100001010101010110 2
b00000000000011100001010101010110 5
b01101010101010000111000000000000 6
b10000 7
b01110000101001100100111000101010 :
b01111000111101110101111001111110 ;
b00110000000001000100100000001000 <
b01001000111100110001011001110110 =
b01001000111100110001011001110110 >
b0011001 A
b00111000010101010101100001011100 C
b01110000101001100100111000101010 D
b11000111101011110000101000110010 P
b0110001111010111100001010001100100 Q
b00000000000000000000000000000001 S
1T
b100011110101100110110001110101011 V
b001010 Y
b00110 Z
#541
#542
#543
#544
#545
#546
#547
#548
#549
#550
#551
#552
#553
#554
#555
#556
#557
#558
#559
#560
b00001101001111100001001001010100 $
b001010100100100001111100101100001 &
b111000101011000100101011110001001 (
1*
0+
0,
b011011 .
b00101010010010000111110010110000 /
b000000000000000000000000000000101 0
b000000000000000000000000000000101 2
b00000000000000000000000000000101 5
b10100000000000000000000000000000 6
b01101 7
b00011101010011101101010000111011 :
b00111111010011101111110010111011 ;
b00001000010010000101010000110000 <
b00110111000001101010100010001011 =
b00110111000001101010100010001011 >
b0011101 A
b00101010010010000111110010110000 C
b00011101010011101101010000111011 D
b00001100111110011010100001110101 P
b1000011001111100110101000011101010 Q
b00000000000000000000000000000000 S
0T
b111000101011000100101011110001001 V
b011011 Y
b01110 Z
#561
#562
#563
#564
#565
#566
#567
#568
#569
#570
#571
#572
#573
#574
#575
#576
#577
#578
#579
