AR_TESTS/PREFETCH_TEST_AR4/logs/ibex_prefetch_buffer.vcd
$version Generated by VerilatedVcd $end
$timescale 1ns $end

 $scope module TOP $end
  $var wire 32 Y addr_i [31:0] $end
  $var wire 32 ] addr_o [31:0] $end
  $var wire  1 X branch_i $end
  $var wire  1 f busy_o $end
  $var wire  1 U clk_i $end
  $var wire  1 ^ err_o $end
  $var wire  1 _ err_plus2_o $end
  $var wire 32 b instr_addr_o [31:0] $end
  $var wire  1 d instr_err_i $end
  $var wire  1 a instr_gnt_i $end
  $var wire 32 c instr_rdata_i [31:0] $end
  $var wire  1 ` instr_req_o $end
  $var wire  1 e instr_rvalid_i $end
  $var wire 32 \ rdata_o [31:0] $end
  $var wire  1 Z ready_i $end
  $var wire  1 W req_i $end
  $var wire  1 V rst_ni $end
  $var wire  1 [ valid_o $end
  $scope module ibex_prefetch_buffer $end
   $var wire 32 i NUM_REQS [31:0] $end
   $var wire  1 h ResetAll $end
   $var wire 32 Y addr_i [31:0] $end
   $var wire 32 ] addr_o [31:0] $end
   $var wire  2 ( branch_discard_n [1:0] $end
   $var wire  2 O branch_discard_q [1:0] $end
   $var wire  2 ) branch_discard_s [1:0] $end
   $var wire  1 X branch_i $end
   $var wire  1 f busy_o $end
   $var wire  1 U clk_i $end
   $var wire  1 % discard_req_d $end
   $var wire  1 M discard_req_q $end
   $var wire  1 ^ err_o $end
   $var wire  1 _ err_plus2_o $end
   $var wire 32 1 fetch_addr_d [31:0] $end
   $var wire  1 + fetch_addr_en $end
   $var wire 32 F fetch_addr_q [31:0] $end
   $var wire 32 Y fifo_addr [31:0] $end
   $var wire  2 R fifo_busy [1:0] $end
   $var wire  1 X fifo_clear $end
   $var wire  1 Q fifo_ready $end
   $var wire  1 , fifo_valid $end
   $var wire 32 0 instr_addr [31:0] $end
   $var wire 32 b instr_addr_o [31:0] $end
   $var wire 32 b instr_addr_w_aligned [31:0] $end
   $var wire  1 d instr_err_i $end
   $var wire  1 a instr_gnt_i $end
   $var wire 32 c instr_rdata_i [31:0] $end
   $var wire  1 ` instr_req_o $end
   $var wire  1 e instr_rvalid_i $end
   $var wire 32 \ rdata_o [31:0] $end
   $var wire  2 & rdata_outstanding_n [1:0] $end
   $var wire  2 N rdata_outstanding_q [1:0] $end
   $var wire  2 P rdata_outstanding_rev [1:0] $end
   $var wire  2 ' rdata_outstanding_s [1:0] $end
   $var wire  1 Z ready_i $end
   $var wire  1 W req_i $end
   $var wire  1 V rst_ni $end
   $var wire 32 0 stored_addr_d [31:0] $end
   $var wire  1 * stored_addr_en $end
   $var wire 32 E stored_addr_q [31:0] $end
   $var wire  1 # valid_new_req $end
   $var wire  1 [ valid_o $end
   $var wire  1 ` valid_req $end
   $var wire  1 $ valid_req_d $end
   $var wire  1 L valid_req_q $end
   $scope module fifo_i $end
    $var wire 32 j DEPTH [31:0] $end
    $var wire 32 i NUM_REQS [31:0] $end
    $var wire  1 h ResetAll $end
    $var wire  1 A addr_incr_two $end
    $var wire  1 ? aligned_is_compressed $end
    $var wire  2 R busy_o [1:0] $end
    $var wire  1 X clear_i $end
    $var wire  1 U clk_i $end
    $var wire  3 8 entry_en [2:0] $end
    $var wire  1 < err $end
    $var wire  3 5 err_d [2:0] $end
    $var wire  1 > err_plus2 $end
    $var wire  3 J err_q [2:0] $end
    $var wire  1 = err_unaligned $end
    $var wire 32 Y in_addr_i [31:0] $end
    $var wire  1 d in_err_i $end
    $var wire 32 c in_rdata_i [31:0] $end
    $var wire  1 , in_valid_i $end
    $var wire 31 C instr_addr_d [31:1] $end
    $var wire  1 D instr_addr_en $end
    $var wire 31 B instr_addr_next [31:1] $end
    $var wire 31 K instr_addr_q [31:1] $end
    $var wire  3 T lowest_free_entry [2:0] $end
    $var wire 32 ] out_addr_o [31:0] $end
    $var wire  1 ^ out_err_o $end
    $var wire  1 _ out_err_plus2_o $end
    $var wire 32 \ out_rdata_o [31:0] $end
    $var wire  1 Z out_ready_i $end
    $var wire  1 [ out_valid_o $end
    $var wire  1 9 pop_fifo $end
    $var wire 32 : rdata [31:0] $end
    $var wire 96 2 rdata_d [95:0] $end
    $var wire 96 G rdata_q [95:0] $end
    $var wire 32 ; rdata_unaligned [31:0] $end
    $var wire  1 V rst_ni $end
    $var wire  1 @ unaligned_is_compressed $end
    $var wire  1 g unused_addr_in $end
    $var wire  1 . valid $end
    $var wire  3 6 valid_d [2:0] $end
    $var wire  3 7 valid_popped [2:0] $end
    $var wire  3 - valid_pushed [2:0] $end
    $var wire  3 S valid_q [2:0] $end
    $var wire  1 / valid_unaligned $end
   $upscope $end
  $upscope $end
 $upscope $end
$enddefinitions $end


#0
0#
0$
0%
b00 &
b00 '
b00 (
b00 )
0*
0+
0,
b000 -
0.
0/
b00000000000000000000000000000000 0
b00000000000000000000000000000000 1
b000000000000000000000000000000000000000000000000000000000000000000000000000000000000000000000000 2
b000 5
b000 6
b000 7
b000 8
09
b00000000000000000000000000000000 :
b00000000000000000000000000000000 ;
0<
0=
0>
1?
1@
1A
b0000000000000000000000000000001 B
b0000000000000000000000000000001 C
0D
b00000000000000000000000000000000 E
b00000000000000000000000000000000 F
b000000000000000000000000000000000000000000000000000000000000000000000000000000000000000000000000 G
b000 J
b0000000000000000000000000000000 K
0L
0M
b00 N
b00 O
b00 P
1Q
b00 R
b000 S
b001 T
1U
1V
0W
0X
b00000000000000000000000000000000 Y
0Z
0[
b00000000000000000000000000000000 \
b00000000000000000000000000000000 ]
0^
0_
0`
0a
b00000000000000000000000000000000 b
b00000000000000000000000000000000 c
0d
0e
0f
0g
0h
b00000000000000000000000000000010 i
b00000000000000000000000000000011 j
#1
0U
#2
1U
#3
0U
#4
1U
#5
0U
#6
1U
#7
0U
#8
1U
#9
0U
#10
1U
#11
0U
#12
1U
#13
0U
#14
1U
#15
0U
#16
1U
#17
0U
#18
1U
#19
0U
#20
1#
b01 &
1+
1,
b001 -
1.
b00000000000000000000000000000100 0
b00000000000000000000000000001000 1
b000000000000000010110000111100100000000000000000101100001111001000000000000000001011000011110010 2
19
b00000000000000001011000011110010 :
b10110000111100100000000000000000 ;
b0000000000000000000000000000010 B
b0000000000000000000000000000010 C
1D
b00000000000000000000000000000100 F
b000000000000000000000000000000000000000000000000000000000000000000000000000000001011000011110010 G
b0000000000000000000000000000001 K
1U
0V
1W
1Z
1[
b10110000111100100000000000000000 \
b00000000000000000000000000000010 ]
1`
1a
b00000000000000000000000000000100 b
b00000000000000001011000011110010 c
1e
1f
#21
0U
#22
b00000000000000000000000000001000 0
b00000000000000000000000000001100 1
b001 6
b001 7
b001 8
09
b0000000000000000000000000000011 B
b0000000000000000000000000000011 C
b00000000000000000000000000001000 F
b0000000000000000000000000000010 K
1U
b00000000000000001011000011110010 \
b00000000000000000000000000000100 ]
b00000000000000000000000000001000 b
#23
0U
#24
b00000000000000000000000000001100 0
b00000000000000000000000000010000 1
b000 6
b000 7
b000 8
19
b0000000000000000000000000000100 B
b0000000000000000000000000000100 C
b00000000000000000000000000001100 F
b0000000000000000000000000000011 K
1U
b10110000111100100000000000000000 \
b00000000000000000000000000000110 ]
b00000000000000000000000000001100 b
#25
0U
#26
b00000000000000000000000000010000 0
b00000000000000000000000000010100 1
b001 6
b001 7
b001 8
09
b0000000000000000000000000000101 B
b0000000000000000000000000000101 C
b00000000000000000000000000010000 F
b0000000000000000000000000000100 K
1U
b00000000000000001011000011110010 \
b00000000000000000000000000001000 ]
b00000000000000000000000000010000 b
#27
0U
#28
b00000000000000000000000000010100 0
b00000000000000000000000000011000 1
b000 6
b000 7
b000 8
19
b0000000000000000000000000000110 B
b0000000000000000000000000000110 C
b00000000000000000000000000010100 F
b0000000000000000000000000000101 K
1U
b10110000111100100000000000000000 \
b00000000000000000000000000001010 ]
b00000000000000000000000000010100 b
#29
0U
#30
b00000000000000000000000000011000 0
b00000000000000000000000000011100 1
b001 6
b001 7
b001 8
09
b0000000000000000000000000000111 B
b0000000000000000000000000000111 C
b00000000000000000000000000011000 F
b0000000000000000000000000000110 K
1U
b00000000000000001011000011110010 \
b00000000000000000000000000001100 ]
b00000000000000000000000000011000 b
#31
0U
#32
b00000000000000000000000000011100 0
b00000000000000000000000000100000 1
b000 6
b000 7
b000 8
19
b0000000000000000000000000001000 B
b0000000000000000000000000001000 C
b00000000000000000000000000011100 F
b0000000000000000000000000000111 K
1U
b10110000111100100000000000000000 \
b00000000000000000000000000001110 ]
b00000000000000000000000000011100 b
#33
0U
#34
b00000000000000000000000000100000 0
b00000000000000000000000000100100 1
b001 6
b001 7
b001 8
09
b0000000000000000000000000001001 B
b0000000000000000000000000001001 C
b00000000000000000000000000100000 F
b0000000000000000000000000001000 K
1U
b00000000000000001011000011110010 \
b00000000000000000000000000010000 ]
b00000000000000000000000000100000 b
#35
0U
#36
b00000000000000000000000000100100 0
b00000000000000000000000000101000 1
b000 6
b000 7
b000 8
19
b0000000000000000000000000001010 B
b0000000000000000000000000001010 C
b00000000000000000000000000100100 F
b0000000000000000000000000001001 K
1U
b10110000111100100000000000000000 \
b00000000000000000000000000010010 ]
b00000000000000000000000000100100 b
#37
0U
#38
b00000000000000000000000000101000 0
b00000000000000000000000000101100 1
b001 6
b001 7
b001 8
09
b0000000000000000000000000001011 B
b0000000000000000000000000001011 C
b00000000000000000000000000101000 F
b0000000000000000000000000001010 K
1U
b00000000000000001011000011110010 \
b00000000000000000000000000010100 ]
b00000000000000000000000000101000 b
#39
0U
#40
b00000000000000000000000000101100 0
b00000000000000000000000000110000 1
b000000000000000001010110010000010000000000000000010101100100000100000000000000000101011001000001 2
b000 6
b000 7
b000 8
19
b00000000000000000101011001000001 :
b01010110010000010000000000000000 ;
b0000000000000000000000000001100 B
b0000000000000000000000000001100 C
b00000000000000000000000000101100 F
b000000000000000000000000000000000000000000000000000000000000000000000000000000000101011001000001 G
b0000000000000000000000000001011 K
1U
b01010110010000010000000000000000 \
b00000000000000000000000000010110 ]
b00000000000000000000000000101100 b
b00000000000000000101011001000001 c
#41
0U
#42
b00000000000000000000000000110000 0
b00000000000000000000000000110100 1
b001 6
b001 7
b001 8
09
b0000000000000000000000000001101 B
b0000000000000000000000000001101 C
b00000000000000000000000000110000 F
b0000000000000000000000000001100 K
1U
b00000000000000000101011001000001 \
b00000000000000000000000000011000 ]
b00000000000000000000000000110000 b
#43
0U
#44
b00000000000000000000000000110100 0
b00000000000000000000000000111000 1
b000 6
b000 7
b000 8
19
b0000000000000000000000000001110 B
b0000000000000000000000000001110 C
b00000000000000000000000000110100 F
b0000000000000000000000000001101 K
1U
b01010110010000010000000000000000 \
b00000000000000000000000000011010 ]
b00000000000000000000000000110100 b
#45
0U
#46
b00000000000000000000000000111000 0
b00000000000000000000000000111100 1
b001 6
b001 7
b001 8
09
b0000000000000000000000000001111 B
b0000000000000000000000000001111 C
b00000000000000000000000000111000 F
b0000000000000000000000000001110 K
1U
b00000000000000000101011001000001 \
b00000000000000000000000000011100 ]
b00000000000000000000000000111000 b
#47
0U
#48
b00000000000000000000000000111100 0
b00000000000000000000000001000000 1
b000 6
b000 7
b000 8
19
b0000000000000000000000000010000 B
b0000000000000000000000000010000 C
b00000000000000000000000000111100 F
b0000000000000000000000000001111 K
1U
b01010110010000010000000000000000 \
b00000000000000000000000000011110 ]
b00000000000000000000000000111100 b
#49
0U
#50
b00000000000000000000000001000000 0
b00000000000000000000000001000100 1
b001 6
b001 7
b001 8
09
b0000000000000000000000000010001 B
b0000000000000000000000000010001 C
b00000000000000000000000001000000 F
b0000000000000000000000000010000 K
1U
b00000000000000000101011001000001 \
b00000000000000000000000000100000 ]
b00000000000000000000000001000000 b
#51
0U
#52
b00000000000000000000000001000100 0
b00000000000000000000000001001000 1
b000 6
b000 7
b000 8
19
b0000000000000000000000000010010 B
b0000000000000000000000000010010 C
b00000000000000000000000001000100 F
b0000000000000000000000000010001 K
1U
b01010110010000010000000000000000 \
b00000000000000000000000000100010 ]
b00000000000000000000000001000100 b
#53
0U
#54
b00000000000000000000000001001000 0
b00000000000000000000000001001100 1
b001 6
b001 7
b001 8
09
b0000000000000000000000000010011 B
b0000000000000000000000000010011 C
b00000000000000000000000001001000 F
b0000000000000000000000000010010 K
1U
b00000000000000000101011001000001 \
b00000000000000000000000000100100 ]
b00000000000000000000000001001000 b
#55
0U
#56
b00000000000000000000000001001100 0
b00000000000000000000000001010000 1
b000 6
b000 7
b000 8
19
b0000000000000000000000000010100 B
b0000000000000000000000000010100 C
b00000000000000000000000001001100 F
b0000000000000000000000000010011 K
1U
b01010110010000010000000000000000 \
b00000000000000000000000000100110 ]
b00000000000000000000000001001100 b
#57
0U
#58
b00000000000000000000000001010000 0
b00000000000000000000000001010100 1
b001 6
b001 7
b001 8
09
b0000000000000000000000000010101 B
b0000000000000000000000000010101 C
b00000000000000000000000001010000 F
b0000000000000000000000000010100 K
1U
b00000000000000000101011001000001 \
b00000000000000000000000000101000 ]
b00000000000000000000000001010000 b
#59
0U
#60
b00000000000000000000000001010100 0
b00000000000000000000000001011000 1
b000000000000000011111100101001010000000000000000111111001010010100000000000000001111110010100101 2
b000 6
b000 7
b000 8
19
b00000000000000001111110010100101 :
b11111100101001010000000000000000 ;
b0000000000000000000000000010110 B
b0000000000000000000000000010110 C
b00000000000000000000000001010100 F
b000000000000000000000000000000000000000000000000000000000000000000000000000000001111110010100101 G
b0000000000000000000000000010101 K
1U
b11111100101001010000000000000000 \
b00000000000000000000000000101010 ]
b00000000000000000000000001010100 b
b00000000000000001111110010100101 c
#61
0U
#62
b00000000000000000000000001011000 0
b00000000000000000000000001011100 1
b001 6
b001 7
b001 8
09
b0000000000000000000000000010111 B
b0000000000000000000000000010111 C
b00000000000000000000000001011000 F
b0000000000000000000000000010110 K
1U
b00000000000000001111110010100101 \
b00000000000000000000000000101100 ]
b00000000000000000000000001011000 b
#63
0U
#64
b00000000000000000000000001011100 0
b00000000000000000000000001100000 1
b000 6
b000 7
b000 8
19
b0000000000000000000000000011000 B
b0000000000000000000000000011000 C
b00000000000000000000000001011100 F
b0000000000000000000000000010111 K
1U
b11111100101001010000000000000000 \
b00000000000000000000000000101110 ]
b00000000000000000000000001011100 b
#65
0U
#66
b00000000000000000000000001100000 0
b00000000000000000000000001100100 1
b001 6
b001 7
b001 8
09
b0000000000000000000000000011001 B
b0000000000000000000000000011001 C
b00000000000000000000000001100000 F
b0000000000000000000000000011000 K
1U
b00000000000000001111110010100101 \
b00000000000000000000000000110000 ]
b00000000000000000000000001100000 b
#67
0U
#68
b00000000000000000000000001100100 0
b00000000000000000000000001101000 1
b000 6
b000 7
b000 8
19
b0000000000000000000000000011010 B
b0000000000000000000000000011010 C
b00000000000000000000000001100100 F
b0000000000000000000000000011001 K
1U
b11111100101001010000000000000000 \
b00000000000000000000000000110010 ]
b00000000000000000000000001100100 b
#69
0U
#70
b00000000000000000000000001101000 0
b00000000000000000000000001101100 1
b001 6
b001 7
b001 8
09
b0000000000000000000000000011011 B
b0000000000000000000000000011011 C
b00000000000000000000000001101000 F
b0000000000000000000000000011010 K
1U
b00000000000000001111110010100101 \
b00000000000000000000000000110100 ]
b00000000000000000000000001101000 b
#71
0U
#72
b00000000000000000000000001101100 0
b00000000000000000000000001110000 1
b000 6
b000 7
b000 8
19
b0000000000000000000000000011100 B
b0000000000000000000000000011100 C
b00000000000000000000000001101100 F
b0000000000000000000000000011011 K
1U
b11111100101001010000000000000000 \
b00000000000000000000000000110110 ]
b00000000000000000000000001101100 b
#73
0U
#74
b00000000000000000000000001110000 0
b00000000000000000000000001110100 1
b001 6
b001 7
b001 8
09
b0000000000000000000000000011101 B
b0000000000000000000000000011101 C
b00000000000000000000000001110000 F
b0000000000000000000000000011100 K
1U
b00000000000000001111110010100101 \
b00000000000000000000000000111000 ]
b00000000000000000000000001110000 b
#75
0U
#76
b00000000000000000000000001110100 0
b00000000000000000000000001111000 1
b000 6
b000 7
b000 8
19
b0000000000000000000000000011110 B
b0000000000000000000000000011110 C
b00000000000000000000000001110100 F
b0000000000000000000000000011101 K
1U
b11111100101001010000000000000000 \
b00000000000000000000000000111010 ]
b00000000000000000000000001110100 b
#77
0U
#78
b00000000000000000000000001111000 0
b00000000000000000000000001111100 1
b001 6
b001 7
b001 8
09
b0000000000000000000000000011111 B
b0000000000000000000000000011111 C
b00000000000000000000000001111000 F
b0000000000000000000000000011110 K
1U
b00000000000000001111110010100101 \
b00000000000000000000000000111100 ]
b00000000000000000000000001111000 b
#79
0U
#80
b00000000000000000000000001111100 0
b00000000000000000000000010000000 1
b000000000000000010101110101001100000000000000000101011101010011000000000000000001010111010100110 2
b000 6
b000 7
b000 8
19
b00000000000000001010111010100110 :
b10101110101001100000000000000000 ;
b0000000000000000000000000100000 B
b0000000000000000000000000100000 C
b00000000000000000000000001111100 F
b000000000000000000000000000000000000000000000000000000000000000000000000000000001010111010100110 G
b0000000000000000000000000011111 K
1U
b10101110101001100000000000000000 \
b00000000000000000000000000111110 ]
b00000000000000000000000001111100 b
b00000000000000001010111010100110 c
#81
0U
#82
b00000000000000000000000010000000 0
b00000000000000000000000010000100 1
b001 6
b001 7
b001 8
09
b0000000000000000000000000100001 B
b0000000000000000000000000100001 C
b00000000000000000000000010000000 F
b0000000000000000000000000100000 K
1U
b00000000000000001010111010100110 \
b00000000000000000000000001000000 ]
b00000000000000000000000010000000 b
#83
0U
#84
b00000000000000000000000010000100 0
b00000000000000000000000010001000 1
b000 6
b000 7
b000 8
19
b0000000000000000000000000100010 B
b0000000000000000000000000100010 C
b00000000000000000000000010000100 F
b0000000000000000000000000100001 K
1U
b10101110101001100000000000000000 \
b00000000000000000000000001000010 ]
b00000000000000000000000010000100 b
#85
0U
#86
b00000000000000000000000010001000 0
b00000000000000000000000010001100 1
b001 6
b001 7
b001 8
09
b0000000000000000000000000100011 B
b0000000000000000000000000100011 C
b00000000000000000000000010001000 F
b0000000000000000000000000100010 K
1U
b00000000000000001010111010100110 \
b00000000000000000000000001000100 ]
b00000000000000000000000010001000 b
#87
0U
#88
b00000000000000000000000010001100 0
b00000000000000000000000010010000 1
b000 6
b000 7
b000 8
19
b0000000000000000000000000100100 B
b0000000000000000000000000100100 C
b00000000000000000000000010001100 F
b0000000000000000000000000100011 K
1U
b10101110101001100000000000000000 \
b00000000000000000000000001000110 ]
b00000000000000000000000010001100 b
#89
0U
#90
b00000000000000000000000010010000 0
b00000000000000000000000010010100 1
b001 6
b001 7
b001 8
09
b0000000000000000000000000100101 B
b0000000000000000000000000100101 C
b00000000000000000000000010010000 F
b0000000000000000000000000100100 K
1U
b00000000000000001010111010100110 \
b00000000000000000000000001001000 ]
b00000000000000000000000010010000 b
#91
0U
#92
b00000000000000000000000010010100 0
b00000000000000000000000010011000 1
b000 6
b000 7
b000 8
19
b0000000000000000000000000100110 B
b0000000000000000000000000100110 C
b00000000000000000000000010010100 F
b0000000000000000000000000100101 K
1U
b10101110101001100000000000000000 \
b00000000000000000000000001001010 ]
b00000000000000000000000010010100 b
#93
0U
#94
b00000000000000000000000010011000 0
b00000000000000000000000010011100 1
b001 6
b001 7
b001 8
09
b0000000000000000000000000100111 B
b0000000000000000000000000100111 C
b00000000000000000000000010011000 F
b0000000000000000000000000100110 K
1U
b00000000000000001010111010100110 \
b00000000000000000000000001001100 ]
b00000000000000000000000010011000 b
#95
0U
#96
b00000000000000000000000010011100 0
b00000000000000000000000010100000 1
b000 6
b000 7
b000 8
19
b0000000000000000000000000101000 B
b0000000000000000000000000101000 C
b00000000000000000000000010011100 F
b0000000000000000000000000100111 K
1U
b10101110101001100000000000000000 \
b00000000000000000000000001001110 ]
b00000000000000000000000010011100 b
#97
0U
#98
b00000000000000000000000010100000 0
b00000000000000000000000010100100 1
b001 6
b001 7
b001 8
09
b0000000000000000000000000101001 B
b0000000000000000000000000101001 C
b00000000000000000000000010100000 F
b0000000000000000000000000101000 K
1U
b00000000000000001010111010100110 \
b00000000000000000000000001010000 ]
b00000000000000000000000010100000 b
#99
0U
#100
b011 -
1/
b00000000000000000000000010100100 0
b00000000000000000000000010101000 1
b000000000000000000000000000000000000000000000000000000000000000000000000000000000000000000000000 2
19
b00000000000000000000000000000000 :
b00000000000000000000000000000000 ;
b0000000000000000000000000101010 B
b0000000000000000000000000101010 C
b00000000000000000000000010100100 F
b000000000000000000000000000000000000000000000000000000000000000000000000000000000000000000000000 G
b0000000000000000000000000101001 K
b001 S
b010 T
1U
1V
b01100010010101010101100011101100 Y
b00000000000000000000000000000000 \
b00000000000000000000000001010010 ]
b00000000000000000000000010100100 b
b00000000000000000000000000000000 c
#101
0U
#102
b00000000000000000000000010101000 0
b00000000000000000000000010101100 1
b011 6
b011 7
b010 8
09
b0000000000000000000000000101011 B
b0000000000000000000000000101011 C
b00000000000000000000000010101000 F
b0000000000000000000000000101010 K
1U
b00000000000000000000000001010100 ]
b00000000000000000000000010101000 b
#103
0U
#104
b111 -
b00000000000000000000000010101100 0
b00000000000000000000000010110000 1
b111 8
19
b0000000000000000000000000101100 B
b0000000000000000000000000101100 C
b00000000000000000000000010101100 F
b0000000000000000000000000101011 K
b01 R
b011 S
b100 T
1U
b00000000000000000000000001010110 ]
b00000000000000000000000010101100 b
#105
0U
#106
b00000000000000000000000010110000 0
b00000000000000000000000010110100 1
b111 6
b111 7
b100 8
09
b0000000000000000000000000101101 B
b0000000000000000000000000101101 C
b00000000000000000000000010110000 F
b0000000000000000000000000101100 K
1U
b00000000000000000000000001011000 ]
b00000000000000000000000010110000 b
#107
0U
#108
0#
b00 &
0+
b00000000000000000000000010110100 0
b011 6
b011 7
b011 8
19
b0000000000000000000000000101110 B
b0000000000000000000000000101110 C
b00000000000000000000000010110100 F
b0000000000000000000000000101101 K
0Q
b11 R
b111 S
b000 T
1U
b00000000000000000000000001011010 ]
0`
b00000000000000000000000010110100 b
0f
#109
0U
#110
1#
b01 &
1+
b00000000000000000000000010111000 1
b111 6
b111 7
b100 8
09
b0000000000000000000000000101111 B
b0000000000000000000000000101111 C
b0000000000000000000000000101110 K
1Q
b01 R
b011 S
b100 T
1U
b00000000000000000000000001011100 ]
1`
1f
#111
0U
#112
0#
b00 &
0+
b00000000000000000000000010111000 0
b011 6
b011 7
b011 8
19
b0000000000000000000000000110000 B
b0000000000000000000000000110000 C
b00000000000000000000000010111000 F
b0000000000000000000000000101111 K
0Q
b11 R
b111 S
b000 T
1U
b00000000000000000000000001011110 ]
0`
b00000000000000000000000010111000 b
0f
#113
0U
#114
1#
b01 &
1+
b00000000000000000000000010111100 1
b111 6
b111 7
b100 8
09
b0000000000000000000000000110001 B
b0000000000000000000000000110001 C
b0000000000000000000000000110000 K
1Q
b01 R
b011 S
b100 T
1U
b00000000000000000000000001100000 ]
1`
1f
#115
0U
#116
0#
b00 &
0+
b00000000000000000000000010111100 0
b011 6
b011 7
b011 8
19
b0000000000000000000000000110010 B
b0000000000000000000000000110010 C
b00000000000000000000000010111100 F
b0000000000000000000000000110001 K
0Q
b11 R
b111 S
b000 T
1U
b00000000000000000000000001100010 ]
0`
b00000000000000000000000010111100 b
0f
#117
0U
#118
1#
b01 &
1+
b00000000000000000000000011000000 1
b111 6
b111 7
b100 8
09
b0000000000000000000000000110011 B
b0000000000000000000000000110011 C
b0000000000000000000000000110010 K
1Q
b01 R
b011 S
b100 T
1U
b00000000000000000000000001100100 ]
1`
1f
#119
0U
#120
b001 -
0/
b00000000000000000000000011000000 0
b00000000000000000000000011000100 1
b000000000000000001000010101101110000000000000000010000101011011100000000000000000100001010110111 2
b000 6
b000 7
b000 8
19
b00000000000000000100001010110111 :
b01000010101101110000000000000000 ;
0?
b0000000000000000000000000110100 B
b0000000000000000000000000110100 C
b00000000000000000000000011000000 F
b000000000000000001000010101101110000000000000000000000000000000000000000000000000000000000000000 G
b0000000000000000000000000110011 K
b00 R
b000 S
b001 T
1U
0V
b00000000000000000000000000000000 Y
b01000010101101110000000000000000 \
b00000000000000000000000001100110 ]
b00000000000000000000000011000000 b
b00000000000000000100001010110111 c
#121
0U
#122
b00000000000000000000000011000100 0
b00000000000000000000000011001000 1
0A
b0000000000000000000000000110110 B
b0000000000000000000000000110110 C
b00000000000000000000000011000100 F
b0000000000000000000000000110100 K
1U
b00000000000000000100001010110111 \
b00000000000000000000000001101000 ]
b00000000000000000000000011000100 b
#123
0U
#124
b00000000000000000000000011001000 0
b00000000000000000000000011001100 1
b0000000000000000000000000111000 B
b0000000000000000000000000111000 C
b00000000000000000000000011001000 F
b0000000000000000000000000110110 K
1U
b00000000000000000000000001101100 ]
b00000000000000000000000011001000 b
#125
0U
#126
b00000000000000000000000011001100 0
b00000000000000000000000011010000 1
b0000000000000000000000000111010 B
b0000000000000000000000000111010 C
b00000000000000000000000011001100 F
b0000000000000000000000000111000 K
1U
b00000000000000000000000001110000 ]
b00000000000000000000000011001100 b
#127
0U
#128
b00000000000000000000000011010000 0
b00000000000000000000000011010100 1
b0000000000000000000000000111100 B
b0000000000000000000000000111100 C
b00000000000000000000000011010000 F
b0000000000000000000000000111010 K
1U
b00000000000000000000000001110100 ]
b00000000000000000000000011010000 b
#129
0U
#130
b00000000000000000000000011010100 0
b00000000000000000000000011011000 1
b0000000000000000000000000111110 B
b0000000000000000000000000111110 C
b00000000000000000000000011010100 F
b0000000000000000000000000111100 K
1U
b00000000000000000000000001111000 ]
b00000000000000000000000011010100 b
#131
0U
#132
b00000000000000000000000011011000 0
b00000000000000000000000011011100 1
b0000000000000000000000001000000 B
b0000000000000000000000001000000 C
b00000000000000000000000011011000 F
b0000000000000000000000000111110 K
1U
b00000000000000000000000001111100 ]
b00000000000000000000000011011000 b
#133
0U
#134
b00000000000000000000000011011100 0
b00000000000000000000000011100000 1
b0000000000000000000000001000010 B
b0000000000000000000000001000010 C
b00000000000000000000000011011100 F
b0000000000000000000000001000000 K
1U
b00000000000000000000000010000000 ]
b00000000000000000000000011011100 b
#135
0U
#136
b00000000000000000000000011100000 0
b00000000000000000000000011100100 1
b0000000000000000000000001000100 B
b0000000000000000000000001000100 C
b00000000000000000000000011100000 F
b0000000000000000000000001000010 K
1U
b00000000000000000000000010000100 ]
b00000000000000000000000011100000 b
#137
0U
#138
b00000000000000000000000011100100 0
b00000000000000000000000011101000 1
b0000000000000000000000001000110 B
b0000000000000000000000001000110 C
b00000000000000000000000011100100 F
b0000000000000000000000001000100 K
1U
b00000000000000000000000010001000 ]
b00000000000000000000000011100100 b
#139
0U
#140
0#
b00 &
0,
b000 -
0.
b01010001010111110000000001111100 0
b01010001010111110000000001111100 1
b000000000000000000000000000000000000000000000000000000000000000000000000000000000000000000000000 2
09
b00000000000000000000000000000000 :
b00000000000000000000000000000000 ;
1?
1A
b0101000101011111000000000111111 B
b0101000101011111000000000111110 C
b01010001010111110000000001111100 F
b0101000101011111000000000111110 K
1U
0W
1X
b01010001010111110000000001111100 Y
0Z
0[
b00000000000000000000000000000000 \
b01010001010111110000000001111100 ]
0`
0a
b01010001010111110000000001111100 b
b00000000000000000000000000000000 c
0e
0f
#141
0U
#142
1U
#143
0U
#144
1U
#145
0U
#146
1U
#147
0U
#148
1U
#149
0U
#150
1U
#151
0U
#152
1U
#153
0U
#154
1U
#155
0U
#156
1U
#157
0U
#158
1U
#159
0U
#160
1#
b01 &
1,
b001 -
1.
b01010001010111110000000010000000 0
b01010001010111110000000010000100 1
b000000000000000010111110100100100000000000000000101111101001001000000000000000001011111010010010 2
19
b00000000000000001011111010010010 :
b10111110100100100000000000000000 ;
b0101000101011111000000001000000 B
b0101000101011111000000001000000 C
b01010001010111110000000010000000 F
b000000000000000001000010101101110000000000000000000000000000000000000000000000001011111010010010 G
b0101000101011111000000000111111 K
1U
1W
0X
b00000000000000000000000000000000 Y
1Z
1[
b10111110100100100000000000000000 \
b01010001010111110000000001111110 ]
1`
1a
b01010001010111110000000010000000 b
b00000000000000001011111010010010 c
1e
1f
#161
0U
#162
b01010001010111110000000010000100 0
b01010001010111110000000010001000 1
b001 6
b001 7
b001 8
09
b0101000101011111000000001000001 B
b0101000101011111000000001000001 C
b01010001010111110000000010000100 F
b0101000101011111000000001000000 K
1U
b00000000000000001011111010010010 \
b01010001010111110000000010000000 ]
b01010001010111110000000010000100 b
#163
0U
#164
b01010001010111110000000010001000 0
b01010001010111110000000010001100 1
b000 6
b000 7
b000 8
19
b0101000101011111000000001000010 B
b0101000101011111000000001000010 C
b01010001010111110000000010001000 F
b0101000101011111000000001000001 K
1U
b10111110100100100000000000000000 \
b01010001010111110000000010000010 ]
b01010001010111110000000010001000 b
#165
0U
#166
b01010001010111110000000010001100 0
b01010001010111110000000010010000 1
b001 6
b001 7
b001 8
09
b0101000101011111000000001000011 B
b0101000101011111000000001000011 C
b01010001010111110000000010001100 F
b0101000101011111000000001000010 K
1U
b00000000000000001011111010010010 \
b01010001010111110000000010000100 ]
b01010001010111110000000010001100 b
#167
0U
#168
b01010001010111110000000010010000 0
b01010001010111110000000010010100 1
b000 6
b000 7
b000 8
19
b0101000101011111000000001000100 B
b0101000101011111000000001000100 C
b01010001010111110000000010010000 F
b0101000101011111000000001000011 K
1U
b10111110100100100000000000000000 \
b01010001010111110000000010000110 ]
b01010001010111110000000010010000 b
#169
0U
#170
b01010001010111110000000010010100 0
b01010001010111110000000010011000 1
b001 6
b001 7
b001 8
09
b0101000101011111000000001000101 B
b0101000101011111000000001000101 C
b01010001010111110000000010010100 F
b0101000101011111000000001000100 K
1U
b00000000000000001011111010010010 \
b01010001010111110000000010001000 ]
b01010001010111110000000010010100 b
#171
0U
