AR_TESTS/RF_TEST_AR4/logs/ibex_register_file_ff.vcd
$version Generated by VerilatedVcd $end
$timescale 1ns $end

 $scope module TOP $end
  $var wire  1 B clk_i $end
  $var wire  1 E dummy_instr_id_i $end
  $var wire  1 F dummy_instr_wb_i $end
  $var wire  1 N err_o $end
  $var wire  5 G raddr_a_i [4:0] $end
  $var wire  5 I raddr_b_i [4:0] $end
  $var wire 32 H rdata_a_o [31:0] $end
  $var wire 32 J rdata_b_o [31:0] $end
  $var wire  1 C rst_ni $end
  $var wire  1 D test_en_i $end
  $var wire  5 K waddr_a_i [4:0] $end
  $var wire 32 L wdata_a_i [31:0] $end
  $var wire  1 M we_a_i $end
  $scope module ibex_register_file_ff $end
   $var wire 32 u ADDR_WIDTH [31:0] $end
   $var wire 32 s DataWidth [31:0] $end
   $var wire  1 r DummyInstructions $end
   $var wire 32 s NUM_WORDS [31:0] $end
   $var wire  1 r RV32E $end
   $var wire 32 t WordZeroVal [31:0] $end
   $var wire  1 r WrenCheck $end
   $var wire  1 B clk_i $end
   $var wire  1 E dummy_instr_id_i $end
   $var wire  1 F dummy_instr_wb_i $end
   $var wire  1 N err_o $end
   $var wire  5 G raddr_a_i [4:0] $end
   $var wire  5 I raddr_b_i [4:0] $end
   $var wire 32 H rdata_a_o [31:0] $end
   $var wire 32 J rdata_b_o [31:0] $end
   $var wire 32 O rf_reg[0] [31:0] $end
   $var wire 32 Y rf_reg[10] [31:0] $end
   $var wire 32 Z rf_reg[11] [31:0] $end
   $var wire 32 [ rf_reg[12] [31:0] $end
   $var wire 32 \ rf_reg[13] [31:0] $end
   $var wire 32 ] rf_reg[14] [31:0] $end
   $var wire 32 ^ rf_reg[15] [31:0] $end
   $var wire 32 _ rf_reg[16] [31:0] $end
   $var wire 32 ` rf_reg[17] [31:0] $end
   $var wire 32 a rf_reg[18] [31:0] $end
   $var wire 32 b rf_reg[19] [31:0] $end
   $var wire 32 P rf_reg[1] [31:0] $end
   $var wire 32 c rf_reg[20] [31:0] $end
   $var wire 32 d rf_reg[21] [31:0] $end
   $var wire 32 e rf_reg[22] [31:0] $end
   $var wire 32 f rf_reg[23] [31:0] $end
   $var wire 32 g rf_reg[24] [31:0] $end
   $var wire 32 h rf_reg[25] [31:0] $end
   $var wire 32 i rf_reg[26] [31:0] $end
   $var wire 32 j rf_reg[27] [31:0] $end
   $var wire 32 k rf_reg[28] [31:0] $end
   $var wire 32 l rf_reg[29] [31:0] $end
   $var wire 32 Q rf_reg[2] [31:0] $end
   $var wire 32 m rf_reg[30] [31:0] $end
   $var wire 32 n rf_reg[31] [31:0] $end
   $var wire 32 R rf_reg[3] [31:0] $end
   $var wire 32 S rf_reg[4] [31:0] $end
   $var wire 32 T rf_reg[5] [31:0] $end
   $var wire 32 U rf_reg[6] [31:0] $end
   $var wire 32 V rf_reg[7] [31:0] $end
   $var wire 32 W rf_reg[8] [31:0] $end
   $var wire 32 X rf_reg[9] [31:0] $end
   $var wire  1 C rst_ni $end
   $var wire  1 D test_en_i $end
   $var wire  1 D unused_test_en $end
   $var wire  5 K waddr_a_i [4:0] $end
   $var wire 32 L wdata_a_i [31:0] $end
   $var wire 32 o we_a_dec [31:0] $end
   $var wire  1 M we_a_i $end
   $scope module g_normal_r0 $end
    $var wire  1 p unused_dummy_instr $end
   $upscope $end
   $scope module g_rf_flops[10] $end
    $var wire 32 # rf_reg_q [31:0] $end
   $upscope $end
   $scope module g_rf_flops[11] $end
    $var wire 32 $ rf_reg_q [31:0] $end
   $upscope $end
   $scope module g_rf_flops[12] $end
    $var wire 32 % rf_reg_q [31:0] $end
   $upscope $end
   $scope module g_rf_flops[13] $end
    $var wire 32 & rf_reg_q [31:0] $end
   $upscope $end
   $scope module g_rf_flops[14] $end
    $var wire 32 ' rf_reg_q [31:0] $end
   $upscope $end
   $scope module g_rf_flops[15] $end
    $var wire 32 ( rf_reg_q [31:0] $end
   $upscope $end
   $scope module g_rf_flops[16] $end
    $var wire 32 ) rf_reg_q [31:0] $end
   $upscope $end
   $scope module g_rf_flops[17] $end
    $var wire 32 * rf_reg_q [31:0] $end
   $upscope $end
   $scope module g_rf_flops[18] $end
    $var wire 32 + rf_reg_q [31:0] $end
   $upscope $end
   $scope module g_rf_flops[19] $end
    $var wire 32 , rf_reg_q [31:0] $end
   $upscope $end
   $scope module g_rf_flops[1] $end
    $var wire 32 - rf_reg_q [31:0] $end
   $upscope $end
   $scope module g_rf_flops[20] $end
    $var wire 32 . rf_reg_q [31:0] $end
   $upscope $end
   $scope module g_rf_flops[21] $end
    $var wire 32 / rf_reg_q [31:0] $end
   $upscope $end
   $scope module g_rf_flops[22] $end
    $var wire 32 0 rf_reg_q [31:0] $end
   $upscope $end
   $scope module g_rf_flops[23] $end
    $var wire 32 1 rf_reg_q [31:0] $end
   $upscope $end
   $scope module g_rf_flops[24] $end
    $var wire 32 2 rf_reg_q [31:0] $end
   $upscope $end
   $scope module g_rf_flops[25] $end
    $var wire 32 3 rf_reg_q [31:0] $end
   $upscope $end
   $scope module g_rf_flops[26] $end
    $var wire 32 4 rf_reg_q [31:0] $end
   $upscope $end
   $scope module g_rf_flops[27] $end
    $var wire 32 5 rf_reg_q [31:0] $end
   $upscope $end
   $scope module g_rf_flops[28] $end
    $var wire 32 6 rf_reg_q [31:0] $end
   $upscope $end
   $scope module g_rf_flops[29] $end
    $var wire 32 7 rf_reg_q [31:0] $end
   $upscope $end
   $scope module g_rf_flops[2] $end
    $var wire 32 8 rf_reg_q [31:0] $end
   $upscope $end
   $scope module g_rf_flops[30] $end
    $var wire 32 9 rf_reg_q [31:0] $end
   $upscope $end
   $scope module g_rf_flops[31] $end
    $var wire 32 : rf_reg_q [31:0] $end
   $upscope $end
   $scope module g_rf_flops[3] $end
    $var wire 32 ; rf_reg_q [31:0] $end
   $upscope $end
   $scope module g_rf_flops[4] $end
    $var wire 32 < rf_reg_q [31:0] $end
   $upscope $end
   $scope module g_rf_flops[5] $end
    $var wire 32 = rf_reg_q [31:0] $end
   $upscope $end
   $scope module g_rf_flops[6] $end
    $var wire 32 > rf_reg_q [31:0] $end
   $upscope $end
   $scope module g_rf_flops[7] $end
    $var wire 32 ? rf_reg_q [31:0] $end
   $upscope $end
   $scope module g_rf_flops[8] $end
    $var wire 32 @ rf_reg_q [31:0] $end
   $upscope $end
   $scope module g_rf_flops[9] $end
    $var wire 32 A rf_reg_q [31:0] $end
   $upscope $end
   $scope module gen_no_wren_check $end
    $var wire  1 q unused_strobe $end
   $upscope $end
   $scope module we_a_decoder $end
    $scope module unnamedblk1 $end
     $var wire 32 s i [31:0] $end
    $upscope $end
   $upscope $end
  $upscope $end
 $upscope $end
$enddefinitions $end


#0
b00000000000000000000000000000000 #
b00000000000000000000000000000000 $
b00000000000000000000000000000000 %
b00000000000000000000000000000000 &
b00000000000000000000000000000000 '
b00000000000000000000000000000000 (
b00000000000000000000000000000000 )
b00000000000000000000000000000000 *
b00000000000000000000000000000000 +
b00000000000000000000000000000000 ,
b00000000000000000000000000000000 -
b00000000000000000000000000000000 .
b00000000000000000000000000000000 /
b00000000000000000000000000000000 0
b00000000000000000000000000000000 1
b00000000000000000000000000000000 2
b00000000000000000000000000000000 3
b00000000000000000000000000000000 4
b00000000000000000000000000000000 5
b00000000000000000000000000000000 6
b00000000000000000000000000000000 7
b00000000000000000000000000000000 8
b00000000000000000000000000000000 9
b00000000000000000000000000000000 :
b00000000000000000000000000000000 ;
b00000000000000000000000000000000 <
b00000000000000000000000000000000 =
b00000000000000000000000000000000 >
b00000000000000000000000000000000 ?
b00000000000000000000000000000000 @
b00000000000000000000000000000000 A
1B
1C
0D
0E
0F
b00000 G
b00000000000000000000000000000000 H
b00000 I
b00000000000000000000000000000000 J
b00110 K
b00000000000000000000000001101001 L
1M
0N
b00000000000000000000000000000000 O
b00000000000000000000000000000000 P
b00000000000000000000000000000000 Q
b00000000000000000000000000000000 R
b00000000000000000000000000000000 S
b00000000000000000000000000000000 T
b00000000000000000000000000000000 U
b00000000000000000000000000000000 V
b00000000000000000000000000000000 W
b00000000000000000000000000000000 X
b00000000000000000000000000000000 Y
b00000000000000000000000000000000 Z
b00000000000000000000000000000000 [
b00000000000000000000000000000000 \
b00000000000000000000000000000000 ]
b00000000000000000000000000000000 ^
b00000000000000000000000000000000 _
b00000000000000000000000000000000 `
b00000000000000000000000000000000 a
b00000000000000000000000000000000 b
b00000000000000000000000000000000 c
b00000000000000000000000000000000 d
b00000000000000000000000000000000 e
b00000000000000000000000000000000 f
b00000000000000000000000000000000 g
b00000000000000000000000000000000 h
b00000000000000000000000000000000 i
b00000000000000000000000000000000 j
b00000000000000000000000000000000 k
b00000000000000000000000000000000 l
b00000000000000000000000000000000 m
b00000000000000000000000000000000 n
b00000000000000000000000001000000 o
0p
0q
0r
b00000000000000000000000000100000 s
b00000000000000000000000000000000 t
b00000000000000000000000000000101 u
#1
0B
#2
b00000000000000000000000001101001 >
1B
b00000000000000000000000001101001 U
#3
0B
#4
1B
#5
0B
#6
1B
#7
0B
#8
1B
#9
0B
#10
1B
#11
0B
#12
1B
#13
0B
#14
1B
#15
0B
#16
1B
#17
0B
#18
1B
#19
0B
#20
b00000000000000000000000011111111 *
1B
b10001 K
b00000000000000000000000011111111 L
b00000000000000000000000011111111 `
b00000000000000100000000000000000 o
#21
0B
#22
1B
#23
0B
#24
1B
#25
0B
#26
1B
#27
0B
#28
1B
#29
0B
#30
1B
#31
0B
#32
1B
#33
0B
#34
1B
#35
0B
#36
1B
#37
0B
#38
1B
#39
0B
#40
1B
b01101 G
b10010 I
b00000 K
b00000000000000000000000000000000 L
0M
b00000000000000000000000000000000 o
#41
0B
#42
1B
#43
0B
#44
1B
#45
0B
#46
1B
#47
0B
#48
1B
#49
0B
#50
1B
#51
0B
#52
1B
#53
0B
#54
1B
#55
0B
#56
1B
#57
0B
#58
1B
#59
0B
#60
1B
b00000 G
b11110 I
#61
0B
#62
1B
#63
0B
#64
1B
#65
0B
#66
1B
#67
0B
#68
1B
#69
0B
#70
1B
#71
0B
#72
1B
#73
0B
#74
1B
#75
0B
#76
1B
#77
0B
#78
1B
#79
0B
#80
b00000000000000000000000011111011 +
1B
b00000 I
b10010 K
b00000000000000000000000011111011 L
1M
b00000000000000000000000011111011 a
b00000000000001000000000000000000 o
#81
0B
#82
1B
#83
0B
#84
1B
#85
0B
#86
1B
#87
0B
#88
1B
#89
0B
#90
1B
#91
0B
#92
1B
#93
0B
#94
1B
#95
0B
#96
1B
#97
0B
#98
1B
#99
0B
#100
b00000000000000000000000001111100 >
1B
b00110 K
b00000000000000000000000001111100 L
b00000000000000000000000001111100 U
b00000000000000000000000001000000 o
#101
0B
#102
1B
#103
0B
#104
1B
#105
0B
#106
1B
#107
0B
#108
1B
#109
0B
#110
1B
#111
0B
#112
1B
#113
0B
#114
1B
#115
0B
#116
1B
#117
0B
#118
1B
#119
0B
#120
1B
b00101 G
b01000 I
b00000 K
b00000000000000000000000000000000 L
0M
b00000000000000000000000000000000 o
#121
0B
#122
1B
#123
0B
#124
1B
#125
0B
#126
1B
#127
0B
#128
1B
#129
0B
#130
1B
#131
0B
#132
1B
#133
0B
#134
1B
#135
0B
#136
1B
#137
0B
#138
1B
#139
0B
#140
b00000000000000000000000011100111 @
1B
b00000 G
b00000 I
b01000 K
b00000000000000000000000011100111 L
1M
b00000000000000000000000011100111 W
b00000000000000000000000100000000 o
#141
0B
#142
1B
#143
0B
#144
1B
#145
0B
#146
1B
#147
0B
#148
1B
#149
0B
#150
1B
#151
0B
#152
1B
#153
0B
#154
1B
#155
0B
#156
1B
#157
0B
#158
1B
#159
0B
#160
1B
b11101 I
b00000 K
b00000000000000000000000000000000 L
0M
b00000000000000000000000000000000 o
#161
0B
#162
1B
#163
0B
#164
1B
#165
0B
#166
1B
#167
0B
#168
1B
#169
0B
#170
1B
#171
0B
#172
1B
#173
0B
#174
1B
#175
0B
#176
1B
#177
0B
#178
1B
#179
0B
#180
1B
b00011 G
b10100 I
#181
0B
#182
1B
#183
0B
#184
1B
#185
0B
#186
1B
#187
0B
#188
1B
#189
0B
#190
1B
#191
0B
#192
1B
#193
0B
#194
1B
#195
0B
#196
1B
#197
0B
#198
1B
#199
0B
#200
b00000000000000000000000011001001 :
1B
b00000 G
b00000 I
b11111 K
b00000000000000000000000011001001 L
1M
b00000000000000000000000011001001 n
b10000000000000000000000000000000 o
#201
0B
#202
1B
#203
0B
#204
1B
#205
0B
#206
1B
#207
0B
#208
1B
#209
0B
#210
1B
#211
0B
#212
1B
#213
0B
#214
1B
#215
0B
#216
1B
#217
0B
#218
1B
#219
0B
#220
1B
b00110 G
b00000000000000000000000001111100 H
b01110 I
b00000 K
b00000000000000000000000000000000 L
0M
b00000000000000000000000000000000 o
#221
0B
#222
1B
#223
0B
#224
1B
#225
0B
#226
1B
#227
0B
#228
1B
#229
0B
#230
1B
#231
0B
#232
1B
#233
0B
#234
1B
#235
0B
#236
1B
#237
0B
#238
1B
#239
0B
#240
1B
b00000 G
b00000000000000000000000000000000 H
b10111 I
#241
0B
#242
1B
#243
0B
#244
1B
#245
0B
#246
1B
#247
0B
#248
1B
#249
0B
#250
1B
#251
0B
#252
1B
#253
0B
#254
1B
#255
0B
#256
1B
#257
0B
#258
1B
#259
0B
#260
1B
b00101 I
#261
0B
#262
1B
#263
0B
#264
1B
#265
0B
#266
1B
#267
0B
#268
1B
#269
0B
#270
1B
#271
0B
#272
1B
#273
0B
#274
1B
#275
0B
#276
1B
#277
0B
#278
1B
#279
0B
#280
b00000000000000000000000000100101 4
1B
b00000 I
b11010 K
b00000000000000000000000000100101 L
1M
b00000000000000000000000000100101 i
b00000100000000000000000000000000 o
#281
0B
#282
1B
#283
0B
#284
1B
#285
0B
#286
1B
#287
0B
#288
1B
#289
0B
#290
1B
#291
0B
#292
1B
#293
0B
#294
1B
#295
0B
#296
1B
#297
0B
#298
1B
#299
0B
#300
1B
b11101 I
b00000 K
b00000000000000000000000000000000 L
0M
b00000000000000000000000000000000 o
#301
0B
#302
1B
#303
0B
#304
1B
#305
0B
#306
1B
#307
0B
#308
1B
#309
0B
#310
1B
#311
0B
#312
1B
#313
0B
#314
1B
#315
0B
#316
1B
#317
0B
#318
1B
#319
0B
#320
b00000000000000000000000011101001 2
1B
b00000 I
b11000 K
b00000000000000000000000011101001 L
1M
b00000000000000000000000011101001 g
b00000001000000000000000000000000 o
#321
0B
#322
1B
#323
0B
#324
1B
#325
0B
#326
1B
#327
0B
#328
1B
#329
0B
#330
1B
#331
0B
#332
1B
#333
0B
#334
1B
#335
0B
#336
1B
#337
0B
#338
1B
#339
0B
#340
1B
b00010 G
b10111 I
b00000 K
b00000000000000000000000000000000 L
0M
b00000000000000000000000000000000 o
#341
0B
#342
1B
#343
0B
#344
1B
#345
0B
#346
1B
#347
0B
#348
1B
#349
0B
#350
1B
#351
0B
#352
1B
#353
0B
#354
1B
#355
0B
#356
1B
#357
0B
#358
1B
#359
0B
#360
1B
b01000 G
b00000000000000000000000011100111 H
b00011 I
#361
0B
#362
1B
#363
0B
#364
1B
#365
0B
#366
1B
#367
0B
#368
1B
#369
0B
#370
1B
#371
0B
#372
1B
#373
0B
#374
1B
#375
0B
#376
1B
#377
0B
#378
1B
#379
0B
#380
b00000000000000000000000001010100 .
1B
b00000 G
b00000000000000000000000000000000 H
b00000 I
b10100 K
b00000000000000000000000001010100 L
1M
b00000000000000000000000001010100 c
b00000000000100000000000000000000 o
#381
0B
#382
1B
#383
0B
#384
1B
#385
0B
#386
1B
#387
0B
#388
1B
#389
0B
#390
1B
#391
0B
#392
1B
#393
0B
#394
1B
#395
0B
#396
1B
#397
0B
#398
1B
#399
0B
#400
1B
b10101 I
b00000 K
b00000000000000000000000000000000 L
0M
b00000000000000000000000000000000 o
#401
0B
#402
1B
#403
0B
#404
1B
#405
0B
#406
1B
#407
0B
#408
1B
#409
0B
#410
1B
#411
0B
#412
1B
#413
0B
#414
1B
#415
0B
#416
1B
#417
0B
#418
1B
#419
0B
#420
1B
b01010 G
b00010 I
#421
0B
#422
1B
#423
0B
#424
1B
#425
0B
#426
1B
#427
0B
#428
1B
#429
0B
#430
1B
#431
0B
#432
1B
#433
0B
#434
1B
#435
0B
#436
1B
#437
0B
#438
1B
#439
0B
#440
1B
b00000 G
b10110 I
#441
0B
#442
1B
#443
0B
#444
1B
#445
0B
#446
1B
#447
0B
#448
1B
#449
0B
#450
1B
#451
0B
#452
1B
#453
0B
#454
1B
#455
0B
#456
1B
#457
0B
#458
1B
#459
0B
#460
1B
b00101 G
b00000 I
#461
0B
#462
1B
#463
0B
#464
1B
#465
0B
#466
1B
#467
0B
#468
1B
#469
0B
#470
1B
#471
0B
#472
1B
#473
0B
#474
1B
#475
0B
#476
1B
#477
0B
#478
1B
#479
0B
#480
1B
b10011 G
#481
0B
#482
1B
#483
0B
#484
1B
#485
0B
#486
1B
#487
0B
#488
1B
#489
0B
#490
1B
#491
0B
#492
1B
#493
0B
#494
1B
#495
0B
#496
1B
#497
0B
#498
1B
#499
0B
#500
1B
b00011 G
b10101 I
#501
0B
#502
1B
#503
0B
#504
1B
#505
0B
#506
1B
#507
0B
#508
1B
#509
0B
#510
1B
#511
0B
#512
1B
#513
0B
#514
1B
#515
0B
#516
1B
#517
0B
#518
1B
#519
0B
#520
1B
b00000 G
b10011 I
#521
0B
#522
1B
#523
0B
#524
1B
#525
0B
#526
1B
#527
0B
#528
1B
#529
0B
#530
1B
#531
0B
#532
1B
#533
0B
#534
1B
#535
0B
#536
1B
#537
0B
#538
1B
#539
0B
#540
b00000000000000000000000000000001 9
1B
b00000 I
b11110 K
b00000000000000000000000000000001 L
1M
b00000000000000000000000000000001 m
b01000000000000000000000000000000 o
#541
0B
#542
1B
#543
0B
#544
1B
#545
0B
#546
1B
#547
0B
#548
1B
#549
0B
#550
1B
#551
0B
#552
1B
#553
0B
#554
1B
#555
0B
#556
1B
#557
0B
#558
1B
#559
0B
#560
1B
b11011 G
b01001 I
b00000 K
b00000000000000000000000000000000 L
0M
b00000000000000000000000000000000 o
#561
0B
#562
1B
#563
0B
#564
1B
#565
0B
#566
1B
#567
0B
#568
1B
#569
0B
#570
1B
#571
0B
#572
1B
#573
0B
#574
1B
#575
0B
#576
1B
#577
0B
#578
1B
#579
0B
#580
1B
b11010 G
b00000000000000000000000000100101 H
b00000 I
#581
0B
#582
1B
#583
0B
#584
1B
#585
0B
#586
1B
#587
0B
#588
1B
#589
0B
#590
1B
#591
0B
#592
1B
#593
0B
#594
1B
#595
0B
#596
1B
#597
0B
#598
1B
#599
0B
#600
1B
b01000 G
b00000000000000000000000011100111 H
b11111 I
b00000000000000000000000011001001 J
#601
0B
#602
1B
#603
0B
#604
1B
#605
0B
#606
1B
#607
0B
#608
1B
#609
0B
#610
1B
#611
0B
#612
1B
#613
0B
#614
1B
#615
0B
#616
1B
#617
0B
#618
1B
#619
0B
#620
1B
b00001 G
b00000000000000000000000000000000 H
b00000 I
b00000000000000000000000000000000 J
#621
0B
#622
1B
#623
0B
#624
1B
#625
0B
#626
1B
#627
0B
#628
1B
#629
0B
#630
1B
#631
0B
#632
1B
#633
0B
#634
1B
#635
0B
#636
1B
#637
0B
#638
1B
#639
0B
#640
1B
#641
0B
#642
1B
#643
0B
#644
1B
#645
0B
#646
1B
#647
0B
#648
1B
#649
0B
#650
1B
#651
0B
#652
1B
#653
0B
#654
1B
#655
0B
#656
1B
#657
0B
#658
1B
#659
0B
#660
b00000000000000000000000000110010 5
1B
b00000 G
b11011 K
b00000000000000000000000000110010 L
1M
b00000000000000000000000000110010 j
b00001000000000000000000000000000 o
#661
0B
#662
1B
#663
0B
#664
1B
#665
0B
#666
1B
#667
0B
#668
1B
#669
0B
#670
1B
#671
0B
#672
1B
#673
0B
#674
1B
#675
0B
#676
1B
#677
0B
#678
1B
#679
0B
#680
b00000000000000000000000001010100 6
1B
b11100 K
b00000000000000000000000001010100 L
b00000000000000000000000001010100 k
b00010000000000000000000000000000 o
#681
0B
#682
1B
#683
0B
#684
1B
#685
0B
#686
1B
#687
0B
#688
1B
#689
0B
#690
1B
#691
0B
#692
1B
#693
0B
#694
1B
#695
0B
#696
1B
#697
0B
#698
1B
#699
0B
#700
1B
b00010 G
b00000 K
b00000000000000000000000000000000 L
0M
b00000000000000000000000000000000 o
#701
0B
#702
1B
#703
0B
#704
1B
#705
0B
#706
1B
#707
0B
#708
1B
#709
0B
#710
1B
#711
0B
#712
1B
#713
0B
#714
1B
#715
0B
#716
1B
#717
0B
#718
1B
#719
0B
#720
b00000000000000000000000000000010 6
1B
b00000 G
b11100 K
b00000000000000000000000000000010 L
1M
b00000000000000000000000000000010 k
b00010000000000000000000000000000 o
#721
0B
#722
1B
#723
0B
#724
1B
#725
0B
#726
1B
#727
0B
#728
1B
#729
0B
#730
1B
#731
0B
#732
1B
#733
0B
#734
1B
#735
0B
#736
1B
#737
0B
#738
1B
#739
0B
#740
1B
b10100 G
b00000000000000000000000001010100 H
b01000 I
b00000000000000000000000011100111 J
b00000 K
b00000000000000000000000000000000 L
0M
b00000000000000000000000000000000 o
#741
0B
#742
1B
#743
0B
#744
1B
#745
0B
#746
1B
#747
0B
#748
1B
#749
0B
#750
1B
#751
0B
#752
1B
#753
0B
#754
1B
#755
0B
#756
1B
#757
0B
#758
1B
#759
0B
#760
b00000000000000000000000010101010 4
1B
b00000 G
b00000000000000000000000000000000 H
b00000 I
b00000000000000000000000000000000 J
b11010 K
b00000000000000000000000010101010 L
1M
b00000000000000000000000010101010 i
b00000100000000000000000000000000 o
#761
0B
#762
1B
#763
0B
#764
1B
#765
0B
#766
1B
#767
0B
#768
1B
#769
0B
#770
1B
#771
0B
#772
1B
#773
0B
#774
1B
#775
0B
#776
1B
#777
0B
#778
1B
#779
0B
#780
1B
b10010 G
b00000000000000000000000011111011 H
b10000 I
b00000 K
b00000000000000000000000000000000 L
0M
b00000000000000000000000000000000 o
#781
0B
#782
1B
#783
0B
#784
1B
#785
0B
#786
1B
#787
0B
#788
1B
#789
0B
#790
1B
#791
0B
#792
1B
#793
0B
#794
1B
#795
0B
#796
1B
#797
0B
#798
1B
#799
0B
#800
1B
b00000 G
b00000000000000000000000000000000 H
b11011 I
b00000000000000000000000000110010 J
#801
0B
#802
1B
#803
0B
#804
1B
#805
0B
#806
1B
#807
0B
#808
1B
#809
0B
#810
1B
#811
0B
#812
1B
#813
0B
#814
1B
#815
0B
#816
1B
#817
0B
#818
1B
#819
0B
#820
1B
b11100 I
b00000000000000000000000000000010 J
#821
0B
#822
1B
#823
0B
#824
1B
#825
0B
#826
1B
#827
0B
#828
1B
#829
0B
#830
1B
#831
0B
#832
1B
#833
0B
#834
1B
#835
0B
#836
1B
#837
0B
#838
1B
#839
0B
#840
1B
b00011 G
b00000 I
b00000000000000000000000000000000 J
#841
0B
#842
1B
#843
0B
#844
1B
#845
0B
#846
1B
#847
0B
#848
1B
#849
0B
#850
1B
#851
0B
#852
1B
#853
0B
#854
1B
#855
0B
#856
1B
#857
0B
#858
1B
#859
0B
#860
1B
b00000 G
b11011 I
b00000000000000000000000000110010 J
#861
0B
#862
1B
#863
0B
#864
1B
#865
0B
#866
1B
#867
0B
#868
1B
#869
0B
#870
1B
#871
0B
#872
1B
#873
0B
#874
1B
#875
0B
#876
1B
#877
0B
#878
1B
#879
0B
#880
1B
b01110 G
b11100 I
b00000000000000000000000000000010 J
#881
0B
#882
1B
#883
0B
#884
1B
#885
0B
#886
1B
#887
0B
#888
1B
#889
0B
#890
1B
#891
0B
#892
1B
#893
0B
#894
1B
#895
0B
#896
1B
#897
0B
#898
1B
#899
0B
#900
1B
b00000 G
b10101 I
b00000000000000000000000000000000 J
#901
0B
#902
1B
#903
0B
#904
1B
#905
0B
#906
1B
#907
0B
#908
1B
#909
0B
#910
1B
#911
0B
#912
1B
#913
0B
#914
1B
#915
0B
#916
1B
#917
0B
#918
1B
#919
0B
#920
b00000000000000000000000010011001 @
1B
b00000 I
b01000 K
b00000000000000000000000010011001 L
1M
b00000000000000000000000010011001 W
b00000000000000000000000100000000 o
#921
0B
#922
1B
#923
0B
#924
1B
#925
0B
#926
1B
#927
0B
#928
1B
#929
0B
#930
1B
#931
0B
#932
1B
#933
0B
#934
1B
#935
0B
#936
1B
#937
0B
#938
1B
#939
0B
#940
b00000000000000000000000010110001 /
1B
b10101 K
b00000000000000000000000010110001 L
b00000000000000000000000010110001 d
b00000000001000000000000000000000 o
#941
0B
#942
1B
#943
0B
#944
1B
#945
0B
#946
1B
#947
0B
#948
1B
#949
0B
#950
1B
#951
0B
#952
1B
#953
0B
#954
1B
#955
0B
#956
1B
#957
0B
#958
1B
#959
0B
#960
b00000000000000000000000010110011 *
1B
b10001 K
b00000000000000000000000010110011 L
b00000000000000000000000010110011 `
b00000000000000100000000000000000 o
#961
0B
#962
1B
#963
0B
#964
1B
#965
0B
#966
1B
#967
0B
#968
1B
#969
0B
#970
1B
#971
0B
#972
1B
#973
0B
#974
1B
#975
0B
#976
1B
#977
0B
#978
1B
#979
0B
#980
1B
b00011 I
b00000 K
b00000000000000000000000000000000 L
0M
b00000000000000000000000000000000 o
#981
0B
#982
1B
#983
0B
#984
1B
#985
0B
#986
1B
#987
0B
#988
1B
#989
0B
#990
1B
#991
0B
#992
1B
#993
0B
#994
1B
#995
0B
#996
1B
#997
0B
#998
1B
#999
0B
#1000
1B
b00000 I
b00000000000000000000000011101001 L
1M
b00000000000000000000000000000001 o
1q
#1001
0B
#1002
1B
#1003
0B
#1004
1B
#1005
0B
#1006
1B
#1007
0B
#1008
1B
#1009
0B
#1010
1B
#1011
0B
#1012
1B
#1013
0B
#1014
1B
#1015
0B
#1016
1B
#1017
0B
#1018
1B
#1019
0B
#1020
1B
b10010 I
b00000000000000000000000011111011 J
b00000000000000000000000000000000 L
0M
b00000000000000000000000000000000 o
0q
#1021
0B
#1022
1B
#1023
0B
#1024
1B
#1025
0B
#1026
1B
#1027
0B
#1028
1B
#1029
0B
#1030
1B
#1031
0B
#1032
1B
#1033
0B
#1034
1B
#1035
0B
#1036
1B
#1037
0B
#1038
1B
#1039
0B
#1040
1B
b10101 I
b00000000000000000000000010110001 J
#1041
0B
#1042
1B
#1043
0B
#1044
1B
#1045
0B
#1046
1B
#1047
0B
#1048
1B
#1049
0B
#1050
1B
#1051
0B
#1052
1B
#1053
0B
#1054
1B
#1055
0B
#1056
1B
#1057
0B
#1058
1B
#1059
0B
#1060
b00000000000000000000000011010000 $
1B
b00000 I
b00000000000000000000000000000000 J
b01011 K
b00000000000000000000000011010000 L
1M
b00000000000000000000000011010000 Z
b00000000000000000000100000000000 o
#1061
0B
#1062
1B
#1063
0B
#1064
1B
#1065
0B
#1066
1B
#1067
0B
#1068
1B
#1069
0B
#1070
1B
#1071
0B
#1072
1B
#1073
0B
#1074
1B
#1075
0B
#1076
1B
#1077
0B
#1078
1B
#1079
0B
#1080
1B
b01101 G
b00000 K
b00000000000000000000000000000000 L
0M
b00000000000000000000000000000000 o
#1081
0B
#1082
1B
#1083
0B
#1084
1B
#1085
0B
#1086
1B
#1087
0B
#1088
1B
#1089
0B
#1090
1B
#1091
0B
#1092
1B
#1093
0B
#1094
1B
#1095
0B
#1096
1B
#1097
0B
#1098
1B
#1099
0B
#1100
1B
#1101
0B
#1102
1B
#1103
0B
#1104
1B
#1105
0B
#1106
1B
#1107
0B
#1108
1B
#1109
0B
#1110
1B
#1111
0B
#1112
1B
#1113
0B
#1114
1B
#1115
0B
#1116
1B
#1117
0B
#1118
1B
#1119
0B
#1120
b00000000000000000000000000011110 ;
1B
b00000 G
b00011 K
b00000000000000000000000000011110 L
1M
b00000000000000000000000000011110 R
b00000000000000000000000000001000 o
#1121
0B
#1122
1B
#1123
0B
#1124
1B
#1125
0B
#1126
1B
#1127
0B
#1128
1B
#1129
0B
#1130
1B
#1131
0B
#1132
1B
#1133
0B
#1134
1B
#1135
0B
#1136
1B
#1137
0B
#1138
1B
#1139
0B
#1140
1B
b01000 G
b00000000000000000000000010011001 H
b00000 K
b00000000000000000000000000000000 L
0M
b00000000000000000000000000000000 o
#1141
0B
#1142
1B
#1143
0B
#1144
1B
#1145
0B
#1146
1B
#1147
0B
#1148
1B
#1149
0B
#1150
1B
#1151
0B
#1152
1B
#1153
0B
#1154
1B
#1155
0B
#1156
1B
#1157
0B
#1158
1B
#1159
0B
#1160
b00000000000000000000000011000101 <
1B
b00000 G
b00000000000000000000000000000000 H
b00100 K
b00000000000000000000000011000101 L
1M
b00000000000000000000000011000101 S
b00000000000000000000000000010000 o
#1161
0B
#1162
1B
#1163
0B
#1164
1B
#1165
0B
#1166
1B
#1167
0B
#1168
1B
#1169
0B
#1170
1B
#1171
0B
#1172
1B
#1173
0B
#1174
1B
#1175
0B
#1176
1B
#1177
0B
#1178
1B
#1179
0B
#1180
1B
b10100 G
b00000000000000000000000001010100 H
b00000 K
b00000000000000000000000000000000 L
0M
b00000000000000000000000000000000 o
#1181
0B
#1182
1B
#1183
0B
#1184
1B
#1185
0B
#1186
1B
#1187
0B
#1188
1B
#1189
0B
#1190
1B
#1191
0B
#1192
1B
#1193
0B
#1194
1B
#1195
0B
#1196
1B
#1197
0B
#1198
1B
#1199
0B
#1200
1B
b01001 G
b00000000000000000000000000000000 H
b01111 I
#1201
0B
#1202
1B
#1203
0B
#1204
1B
#1205
0B
#1206
1B
#1207
0B
#1208
1B
#1209
0B
#1210
1B
#1211
0B
#1212
1B
#1213
0B
#1214
1B
#1215
0B
#1216
1B
#1217
0B
#1218
1B
#1219
0B
