AR_TESTS/COMP_DECODE_TEST_AR4/logs/ibex_compressed_decoder.vcd
$version Generated by VerilatedVcd $end
$timescale 1ns $end

 $scope module TOP $end
  $var wire  1 # clk_i $end
  $var wire 16 ' enum_dpi [15:0] $end
  $var wire  1 * illegal_instr_o $end
  $var wire 32 & instr_i [31:0] $end
  $var wire 32 ( instr_o [31:0] $end
  $var wire  1 ) is_compressed_o $end
  $var wire  1 $ rst_ni $end
  $var wire  1 % valid_i $end
  $scope module ibex_compressed_decoder $end
   $var wire  1 # clk_i $end
   $var wire 16 ' enum_dpi [15:0] $end
   $var wire  1 * illegal_instr_o $end
   $var wire 32 & instr_i [31:0] $end
   $var wire 32 ( instr_o [31:0] $end
   $var wire  1 ) is_compressed_o $end
   $var wire  1 $ rst_ni $end
   $var wire 17 + unused_signals [16:0] $end
   $var wire  1 % valid_i $end
  $upscope $end
 $upscope $end
$enddefinitions $end


#0
1#
0$
0%
b00000000000000000110101111001000 &
b0000000000011110 '
b00000000000000000110101111001000 (
1)
1*
b00000000000111100 +
#1
0#
#2
1#
b00000000000000000111101111001000 &
b00000000000000000111101111001000 (
#3
0#
#4
1#
b00000000000000000110011100100000 &
b00000000000000000110011100100000 (
#5
0#
#6
1#
b00000000000000000110011100000100 &
b00000000000000000110011100000100 (
#7
0#
#8
1#
b00000000000000000110001100001000 &
b00000000000000000110001100001000 (
#9
0#
#10
1#
b00000000000000000110100101001000 &
b00000000000000000110100101001000 (
#11
0#
#12
1#
b00000000000000000110010011101100 &
b00000000000000000110010011101100 (
#13
0#
#14
1#
b00000000000000000111111001000100 &
b00000000000000000111111001000100 (
#15
0#
#16
1#
b00000000000000000110000011100100 &
b00000000000000000110000011100100 (
#17
0#
#18
1#
b00000000000000000110101100111100 &
b00000000000000000110101100111100 (
#19
0#
#20
1#
b00000000000000001000111100110101 &
b0000000000001110 '
b00000000110101110100011100110011 (
0*
b00000000000011100 +
#21
0#
#22
1#
b00000000000000001000111000111101 &
b00000000111101100100011000110011 (
#23
0#
#24
1#
b00000000000000001000111100100101 &
b00000000100101110100011100110011 (
#25
0#
#26
1#
b00000000000000001000111010100101 &
b00000000100101101100011010110011 (
#27
0#
#28
1#
b00000000000000001000111000101001 &
b00000000101001100100011000110011 (
#29
0#
#30
1#
b00000000000000001000111000110001 &
b00000000110001100100011000110011 (
#31
0#
#32
1#
b00000000000000001000110100101101 &
b00000000101101010100010100110011 (
#33
0#
#34
1#
b00000000000000001000110010100001 &
b00000000100001001100010010110011 (
#35
0#
#36
1#
b00000000000000001000110110101001 &
b00000000101001011100010110110011 (
#37
0#
#38
1#
b00000000000000001000111010100001 &
b00000000100001101100011010110011 (
#39
0#
#40
1#
b00000000000000001100111111000001 &
b0000000000010001 '
b00001000000001111000110001100011 (
b00000000000100010 +
#41
0#
#42
1#
b00000000000000001101000000100101 &
b11110110000001000000000011100011 (
#43
0#
#44
1#
b00000000000000001101110101101001 &
b11111100000001010000110111100011 (
#45
0#
#46
1#
b00000000000000001100000110000001 &
b00000000000001011000000001100011 (
#47
0#
#48
1#
b00000000000000001100001001111001 &
b00001100000001100000001101100011 (
#49
0#
#50
1#
b00000000000000001100001001110001 &
b00001100000001100000001001100011 (
#51
0#
#52
1#
b00000000000000001101111011100001 &
b11111100000001101000110011100011 (
#53
0#
#54
1#
b00000000000000001101010000111101 &
b11110110000001000000011111100011 (
#55
0#
#56
1#
b00000000000000001101111001010101 &
b11111010000001100000111011100011 (
#57
0#
#58
1#
b00000000000000001101000000101001 &
b11110100000001000000000111100011 (
#59
0#
#60
1#
b00000000000000000000100001100100 &
b0000000000000000 '
b00000001110000010000010010010011 (
b00000000000000000 +
#61
0#
#62
1#
b00000000000000000001101111011000 &
b00011111010000010000011100010011 (
#63
0#
#64
1#
b00000000000000000000100010101100 &
b00000101100000010000010110010011 (
#65
0#
#66
1#
b00000000000000000001100001111100 &
b00000011110000010000011110010011 (
#67
0#
#68
1#
b00000000000000000001111110001000 &
b00111111000000010000010100010011 (
#69
0#
#70
1#
b00000000000000000001001001010100 &
b00010010010000010000011010010011 (
#71
0#
#72
1#
b00000000000000000000100011110100 &
b00000101110000010000011010010011 (
#73
0#
#74
1#
b00000000000000000000101001000000 &
b00010001010000010000010000010011 (
#75
0#
#76
1#
b00000000000000000000000110110100 &
b00001100100000010000011010010011 (
#77
0#
#78
1#
b00000000000000000000001001110100 &
b00010000110000010000011010010011 (
#79
0#
#80
1#
b00000000000000000100000110000000 &
b0000000000000001 '
b00000000000001011010010000000011 (
b00000000000000010 +
#81
0#
#82
1#
b00000000000000000100100000000000 &
b00000001000001000010010000000011 (
#83
0#
#84
1#
b00000000000000000101101100001100 &
b00000011000001110010010110000011 (
#85
0#
#86
1#
b00000000000000000101000011011100 &
b00000010010001001010011110000011 (
#87
0#
#88
1#
b00000000000000000101000001011100 &
b00000010010001000010011110000011 (
#89
0#
#90
1#
b00000000000000000100100111001100 &
b00000001010001011010010110000011 (
#91
0#
#92
1#
b00000000000000000100101010000000 &
b00000001000001101010010000000011 (
#93
0#
#94
1#
b00000000000000000100010011000000 &
b00000000110001001010010000000011 (
#95
0#
#96
1#
b00000000000000000101010101111100 &
b00000110110001010010011110000011 (
#97
0#
#98
1#
b00000000000000000100101011101100 &
b00000101010001101010010110000011 (
#99
0#
#100
1#
b00000000000000001001110110011001 &
b0000000000100011 '
b00000000000000001001110110011001 (
1*
b00000000001000110 +
#101
0#
#102
1#
b00000000000000001001111110001001 &
b00000000000000001001111110001001 (
#103
0#
#104
1#
b00000000000000001001110110001001 &
b00000000000000001001110110001001 (
#105
0#
#106
1#
#107
0#
#108
1#
b00000000000000001001111100010001 &
b00000000000000001001111100010001 (
#109
0#
#110
1#
b00000000000000001001111100011001 &
b00000000000000001001111100011001 (
#111
0#
#112
1#
b00000000000000001001111100011101 &
b00000000000000001001111100011101 (
#113
0#
#114
1#
b00000000000000001001110100000001 &
b00000000000000001001110100000001 (
#115
0#
#116
1#
b00000000000000001001111000000101 &
b00000000000000001001111000000101 (
#117
0#
#118
1#
b00000000000000001001110100011001 &
b00000000000000001001110100011001 (
#119
0#
#120
1#
b00000000000000001011010001000110 &
b0000000000101010 '
b00000000000000001011010001000110 (
b00000000001010100 +
#121
0#
#122
1#
b00000000000000001010010011110110 &
b00000000000000001010010011110110 (
#123
0#
#124
1#
b00000000000000001011001100000010 &
b00000000000000001011001100000010 (
#125
0#
#126
1#
b00000000000000001010110001001110 &
b00000000000000001010110001001110 (
#127
0#
#128
1#
b00000000000000001010011010001010 &
b00000000000000001010011010001010 (
#129
0#
#130
1#
b00000000000000001011001101011110 &
b00000000000000001011001101011110 (
#131
0#
#132
1#
b00000000000000001010001001111110 &
b00000000000000001010001001111110 (
#133
0#
#134
1#
b00000000000000001010000000111110 &
b00000000000000001010000000111110 (
#135
0#
#136
1#
b00000000000000001010010111011110 &
b00000000000000001010010111011110 (
#137
0#
#138
1#
b00000000000000001010001010100110 &
b00000000000000001010001010100110 (
#139
0#
#140
1#
b00000000000000001100110111100100 &
b0000000000000010 '
b00000100100101011010111000100011 (
0*
b00000000000000100 +
#141
0#
#142
1#
b00000000000000001100111100010000 &
b00000000110001110010110000100011 (
#143
0#
#144
1#
b00000000000000001100001010011100 &
b00000000111101101010000000100011 (
#145
0#
#146
1#
b00000000000000001100000001000100 &
b00000000100101000010001000100011 (
#147
0#
#148
1#
b00000000000000001100001001010100 &
b00000000110101100010001000100011 (
#149
0#
#150
1#
b00000000000000001100001000001000 &
b00000000101001100010000000100011 (
#151
0#
#152
1#
b00000000000000001100011011101000 &
b00000100101001101010011000100011 (
#153
0#
#154
1#
b00000000000000001100100111111000 &
b00000100111001011010101000100011 (
#155
0#
#156
1#
b00000000000000001100100011001000 &
b00000000101001001010101000100011 (
#157
0#
#158
1#
b00000000000000001100101000010000 &
b00000000110001100010100000100011 (
#159
0#
#160
1#
b00000000000000000011011000100110 &
b0000000000100101 '
b00000000000000000011011000100110 (
1*
b00000000001001010 +
#161
0#
#162
1#
b00000000000000000010011110011010 &
b00000000000000000010011110011010 (
#163
0#
#164
1#
b00000000000000000010110010101010 &
b00000000000000000010110010101010 (
#165
0#
#166
1#
b00000000000000000010010101100110 &
b00000000000000000010010101100110 (
#167
0#
#168
1#
b00000000000000000010101010100010 &
b00000000000000000010101010100010 (
#169
0#
#170
1#
b00000000000000000011110100011010 &
b00000000000000000011110100011010 (
#171
0#
#172
1#
b00000000000000000011100110000110 &
b00000000000000000011100110000110 (
#173
0#
#174
1#
b00000000000000000011110000111010 &
b00000000000000000011110000111010 (
#175
0#
#176
1#
b00000000000000000011110001001010 &
b00000000000000000011110001001010 (
#177
0#
#178
1#
b00000000000000000010101111101110 &
b00000000000000000010101111101110 (
#179
0#
#180
1#
b00000000000000001100100000111000 &
b0000000000000010 '
b00000100111001000010100000100011 (
0*
b00000000000000100 +
#181
0#
#182
1#
b00000000000000001101001011000100 &
b00000010100101101010001000100011 (
#183
0#
#184
1#
b00000000000000001101010001011100 &
b00000010111101000010011000100011 (
#185
0#
#186
1#
b00000000000000001100110101110000 &
b00000100110001010010111000100011 (
#187
0#
#188
1#
b00000000000000001100110011001100 &
b00000000101101001010111000100011 (
#189
0#
#190
1#
b00000000000000001101101101110000 &
b00000110110001110010101000100011 (
#191
0#
#192
1#
b00000000000000001101100101101000 &
b00000110101001010010101000100011 (
#193
0#
#194
1#
b00000000000000001101101111100000 &
b00000110100001111010101000100011 (
#195
0#
#196
1#
b00000000000000001100011011111000 &
b00000100111001101010011000100011 (
#197
0#
#198
1#
b00000000000000001100001101100100 &
b00000100100101110010001000100011 (
#199
0#
#200
1#
b00000000000000001110100100010100 &
b0000000000100001 '
b00000000000000001110100100010100 (
1*
b00000000001000010 +
#201
0#
#202
1#
b00000000000000001111011010001000 &
b00000000000000001111011010001000 (
#203
0#
#204
1#
b00000000000000001111100101010000 &
b00000000000000001111100101010000 (
#205
0#
#206
1#
b00000000000000001110000100101100 &
b00000000000000001110000100101100 (
#207
0#
#208
1#
b00000000000000001111000001010000 &
b00000000000000001111000001010000 (
#209
0#
#210
1#
b00000000000000001110100101001100 &
b00000000000000001110100101001100 (
#211
0#
#212
1#
b00000000000000001111100000100000 &
b00000000000000001111100000100000 (
#213
0#
#214
1#
b00000000000000001111011111101000 &
b00000000000000001111011111101000 (
#215
0#
#216
1#
b00000000000000001110010101110100 &
b00000000000000001110010101110100 (
#217
0#
#218
1#
b00000000000000001111011001001000 &
b00000000000000001111011001001000 (
#219
0#
#220
1#
b00000000000000001110001111111000 &
b0000000000100010 '
b00000000000000001110001111111000 (
b00000000001000100 +
#221
0#
#222
1#
b00000000000000001111001000110000 &
b00000000000000001111001000110000 (
#223
0#
#224
1#
b00000000000000001110110000110100 &
b00000000000000001110110000110100 (
#225
0#
#226
1#
b00000000000000001110001011110000 &
b00000000000000001110001011110000 (
#227
0#
#228
1#
b00000000000000001111110110010100 &
b00000000000000001111110110010100 (
#229
0#
#230
1#
b00000000000000001110101111000100 &
b00000000000000001110101111000100 (
#231
0#
#232
1#
b00000000000000001111100100011000 &
b00000000000000001111100100011000 (
#233
0#
#234
1#
b00000000000000001110001111000000 &
b00000000000000001110001111000000 (
#235
0#
#236
1#
b00000000000000001111001101010100 &
b00000000000000001111001101010100 (
#237
0#
#238
1#
b00000000000000001110000101100000 &
b00000000000000001110000101100000 (
#239
0#
#240
1#
b00000000000000001000000111000010 &
b0000000000010101 '
b00000001000000000000000110110011 (
0*
b00000000000101010 +
#241
0#
#242
1#
b00000000000000001000100110101010 &
b00000000101000000000100110110011 (
#243
0#
#244
1#
b00000000000000001000110000010110 &
b00000000010100000000110000110011 (
#245
0#
#246
1#
b00000000000000001000000011110010 &
b00000001110000000000000010110011 (
#247
0#
#248
1#
b00000000000000001000011100001010 &
b00000000001000000000011100110011 (
#249
0#
#250
1#
b00000000000000001000100000001110 &
b00000000001100000000100000110011 (
#251
0#
#252
1#
b00000000000000001000110001000110 &
b00000001000100000000110000110011 (
#253
0#
#254
1#
b00000000000000001000110101110010 &
b00000001110000000000110100110011 (
#255
0#
#256
1#
b00000000000000001000000011000010 &
b00000001000000000000000010110011 (
#257
0#
#258
1#
b00000000000000001000110000001010 &
b00000000001000000000110000110011 (
