AR_TESTS/DEC_TEST_AR4/logs/dr32e_dec.vcd
$version Generated by VerilatedVcd $end
$timescale 1ns $end

 $scope module TOP $end
  $var wire  1 M alu_multicycle_o $end
  $var wire  2 K alu_op_a_mux_sel_o [1:0] $end
  $var wire  1 L alu_op_b_mux_sel_o $end
  $var wire  7 J alu_operator_o [6:0] $end
  $var wire  1 [ branch_in_dec_o $end
  $var wire  1 3 branch_taken_i $end
  $var wire  2 ; bt_a_mux_sel_o [1:0] $end
  $var wire  3 < bt_b_mux_sel_o [2:0] $end
  $var wire  1 * clk_i $end
  $var wire  1 T csr_access_o $end
  $var wire  2 U csr_op_o [1:0] $end
  $var wire  1 V data_req_o $end
  $var wire  1 Y data_sign_extension_o $end
  $var wire  2 X data_type_o [1:0] $end
  $var wire  1 W data_we_o $end
  $var wire  1 O div_en_o $end
  $var wire  1 Q div_sel_o $end
  $var wire  1 / dret_insn_o $end
  $var wire  1 - ebrk_insn_o $end
  $var wire  1 0 ecall_insn_o $end
  $var wire  1 4 icache_inval_o $end
  $var wire  1 8 illegal_c_insn_i $end
  $var wire  1 , illegal_insn_o $end
  $var wire  1 9 imm_a_mux_sel_o $end
  $var wire  3 : imm_b_mux_sel_o [2:0] $end
  $var wire 32 ? imm_b_type_o [31:0] $end
  $var wire 32 = imm_i_type_o [31:0] $end
  $var wire 32 A imm_j_type_o [31:0] $end
  $var wire 32 > imm_s_type_o [31:0] $end
  $var wire 32 @ imm_u_type_o [31:0] $end
  $var wire  1 5 instr_first_cycle_i $end
  $var wire 32 7 instr_rdata_alu_i [31:0] $end
  $var wire 32 6 instr_rdata_i [31:0] $end
  $var wire  1 Z jump_in_dec_o $end
  $var wire  1 2 jump_set_o $end
  $var wire  1 . mret_insn_o $end
  $var wire  1 N mult_en_o $end
  $var wire  1 P mult_sel_o $end
  $var wire  2 R multdiv_operator_o [1:0] $end
  $var wire  2 S multdiv_signed_mode_o [1:0] $end
  $var wire  5 E rf_raddr_a_o [4:0] $end
  $var wire  5 F rf_raddr_b_o [4:0] $end
  $var wire  1 H rf_ren_a_o $end
  $var wire  1 I rf_ren_b_o $end
  $var wire  5 G rf_waddr_o [4:0] $end
  $var wire  1 C rf_wdata_sel_o $end
  $var wire  1 D rf_we_o $end
  $var wire  1 + rst_ni $end
  $var wire  1 1 wfi_insn_o $end
  $var wire 32 B zimm_rs1_type_o [31:0] $end
  $scope module dr32e_dec $end
   $var wire  1 ^ BranchTargetALU $end
   $var wire 32 ` RV32B [31:0] $end
   $var wire  1 ^ RV32E $end
   $var wire 32 _ RV32M [31:0] $end
   $var wire  1 M alu_multicycle_o $end
   $var wire  2 K alu_op_a_mux_sel_o [1:0] $end
   $var wire  1 L alu_op_b_mux_sel_o $end
   $var wire  7 J alu_operator_o [6:0] $end
   $var wire  1 [ branch_in_dec_o $end
   $var wire  1 3 branch_taken_i $end
   $var wire  2 ; bt_a_mux_sel_o [1:0] $end
   $var wire  3 < bt_b_mux_sel_o [2:0] $end
   $var wire  1 * clk_i $end
   $var wire  1 T csr_access_o $end
   $var wire  1 $ csr_illegal $end
   $var wire  2 ' csr_op [1:0] $end
   $var wire  2 U csr_op_o [1:0] $end
   $var wire  1 V data_req_o $end
   $var wire  1 Y data_sign_extension_o $end
   $var wire  2 X data_type_o [1:0] $end
   $var wire  1 W data_we_o $end
   $var wire  1 O div_en_o $end
   $var wire  1 Q div_sel_o $end
   $var wire  1 / dret_insn_o $end
   $var wire  1 - ebrk_insn_o $end
   $var wire  1 0 ecall_insn_o $end
   $var wire  1 4 icache_inval_o $end
   $var wire  1 8 illegal_c_insn_i $end
   $var wire  1 # illegal_insn $end
   $var wire  1 , illegal_insn_o $end
   $var wire  1 a illegal_reg_rv32e $end
   $var wire  1 9 imm_a_mux_sel_o $end
   $var wire  3 : imm_b_mux_sel_o [2:0] $end
   $var wire 32 ? imm_b_type_o [31:0] $end
   $var wire 32 = imm_i_type_o [31:0] $end
   $var wire 32 A imm_j_type_o [31:0] $end
   $var wire 32 > imm_s_type_o [31:0] $end
   $var wire 32 @ imm_u_type_o [31:0] $end
   $var wire 32 6 instr [31:0] $end
   $var wire 32 7 instr_alu [31:0] $end
   $var wire  1 5 instr_first_cycle_i $end
   $var wire  5 G instr_rd [4:0] $end
   $var wire 32 7 instr_rdata_alu_i [31:0] $end
   $var wire 32 6 instr_rdata_i [31:0] $end
   $var wire  5 \ instr_rs1 [4:0] $end
   $var wire  5 F instr_rs2 [4:0] $end
   $var wire  5 ] instr_rs3 [4:0] $end
   $var wire  1 Z jump_in_dec_o $end
   $var wire  1 2 jump_set_o $end
   $var wire  1 . mret_insn_o $end
   $var wire  1 N mult_en_o $end
   $var wire  1 P mult_sel_o $end
   $var wire  2 R multdiv_operator_o [1:0] $end
   $var wire  2 S multdiv_signed_mode_o [1:0] $end
   $var wire  7 ( opcode [6:0] $end
   $var wire  7 ) opcode_alu [6:0] $end
   $var wire  5 E rf_raddr_a_o [4:0] $end
   $var wire  5 F rf_raddr_b_o [4:0] $end
   $var wire  1 H rf_ren_a_o $end
   $var wire  1 I rf_ren_b_o $end
   $var wire  5 G rf_waddr_o [4:0] $end
   $var wire  1 C rf_wdata_sel_o $end
   $var wire  1 % rf_we $end
   $var wire  1 D rf_we_o $end
   $var wire  1 + rst_ni $end
   $var wire 10 & unused_instr_alu [9:0] $end
   $var wire  1 a use_rs3_d $end
   $var wire  1 a use_rs3_q $end
   $var wire  1 1 wfi_insn_o $end
   $var wire 32 B zimm_rs1_type_o [31:0] $end
   $scope module gen_no_rs3_flop $end
    $var wire  1 * unused_clk $end
    $var wire  1 + unused_rst_n $end
   $upscope $end
  $upscope $end
  $scope module dr32e_pkg $end
   $var wire 32 n ADDR_W [31:0] $end
   $var wire 32 o BUS_BYTES [31:0] $end
   $var wire 32 n BUS_SIZE [31:0] $end
   $var wire 32 p BUS_W [31:0] $end
   $var wire 32 (! CSR_MARCHID_VALUE [31:0] $end
   $var wire 32 '! CSR_MCONFIGPTR_VALUE [31:0] $end
   $var wire 32 !! CSR_MEIX_BIT [31:0] $end
   $var wire 32 &! CSR_MFIX_BIT_HIGH [31:0] $end
   $var wire 32 z CSR_MFIX_BIT_LOW [31:0] $end
   $var wire 32 '! CSR_MIMPID_VALUE [31:0] $end
   $var wire  2 %! CSR_MISA_MXL [1:0] $end
   $var wire 32 { CSR_MSECCFG_MML_BIT [31:0] $end
   $var wire 32 v CSR_MSECCFG_MMWP_BIT [31:0] $end
   $var wire 32 p CSR_MSECCFG_RLB_BIT [31:0] $end
   $var wire 32 t CSR_MSIX_BIT [31:0] $end
   $var wire 32 t CSR_MSTATUS_MIE_BIT [31:0] $end
   $var wire 32 ~ CSR_MSTATUS_MPIE_BIT [31:0] $end
   $var wire 32 "! CSR_MSTATUS_MPP_BIT_HIGH [31:0] $end
   $var wire 32 !! CSR_MSTATUS_MPP_BIT_LOW [31:0] $end
   $var wire 32 #! CSR_MSTATUS_MPRV_BIT [31:0] $end
   $var wire 32 $! CSR_MSTATUS_TW_BIT [31:0] $end
   $var wire 32 ~ CSR_MTIX_BIT [31:0] $end
   $var wire 32 '! CSR_MVENDORID_VALUE [31:0] $end
   $var wire 12 } CSR_OFF_PMP_ADDR [11:0] $end
   $var wire 12 | CSR_OFF_PMP_CFG [11:0] $end
   $var wire  7 i ExcCauseBreakpoint [6:0] $end
   $var wire  7 m ExcCauseEcallMMode [6:0] $end
   $var wire  7 l ExcCauseEcallUMode [6:0] $end
   $var wire  7 h ExcCauseIllegalInsn [6:0] $end
   $var wire  7 f ExcCauseInsnAddrMisa [6:0] $end
   $var wire  7 g ExcCauseInstrAccessFault [6:0] $end
   $var wire  7 d ExcCauseIrqExternalM [6:0] $end
   $var wire  7 e ExcCauseIrqNm [6:0] $end
   $var wire  7 b ExcCauseIrqSoftwareM [6:0] $end
   $var wire  7 c ExcCauseIrqTimerM [6:0] $end
   $var wire  7 j ExcCauseLoadAccessFault [6:0] $end
   $var wire  7 k ExcCauseStoreAccessFault [6:0] $end
   $var wire 32 w IC_INDEX_HI [31:0] $end
   $var wire 32 s IC_INDEX_W [31:0] $end
   $var wire 32 p IC_LINE_BEATS [31:0] $end
   $var wire 32 v IC_LINE_BEATS_W [31:0] $end
   $var wire 32 s IC_LINE_BYTES [31:0] $end
   $var wire 32 r IC_LINE_SIZE [31:0] $end
   $var wire 32 t IC_LINE_W [31:0] $end
   $var wire 32 u IC_NUM_LINES [31:0] $end
   $var wire 32 p IC_NUM_WAYS [31:0] $end
   $var wire 32 p IC_OUTPUT_BEATS [31:0] $end
   $var wire 32 q IC_SIZE_BYTES [31:0] $end
   $var wire 32 x IC_TAG_SIZE [31:0] $end
   $var wire  4 7! IbexMuBiOff [3:0] $end
   $var wire  4 6! IbexMuBiOn [3:0] $end
   $var wire 32 )! LfsrWidth [31:0] $end
   $var wire 32 s PMP_CFG_W [31:0] $end
   $var wire 32 p PMP_D [31:0] $end
   $var wire 32 { PMP_I [31:0] $end
   $var wire 32 v PMP_I2 [31:0] $end
   $var wire 32 z PMP_MAX_REGIONS [31:0] $end
   $var wire 128 0! RndCnstIbexKeyDefault [127:0] $end
   $var wire 64 4! RndCnstIbexNonceDefault [63:0] $end
   $var wire 160 +! RndCnstLfsrPermDefault [159:0] $end
   $var wire 32 *! RndCnstLfsrSeedDefault [31:0] $end
   $var wire 32 y SCRAMBLE_KEY_W [31:0] $end
   $var wire 32 r SCRAMBLE_NONCE_W [31:0] $end
  $upscope $end
 $upscope $end
$enddefinitions $end


#0
0#
0$
0%
b0000000000 &
b00 '
b1110011 (
b1110011 )
1*
0+
0,
0-
0.
0/
00
11
02
03
04
05
b00010000010100000000000001110011 6
b00010000010100000000000001110011 7
08
19
b000 :
b10 ;
b000 <
b00000000000000000000000100000101 =
b00000000000000000000000100000000 >
b00000000000000000000000100000000 ?
b00010000010100000000000000000000 @
b00000000000000000000100100000100 A
b00000000000000000000000000000000 B
0C
0D
b00000 E
b00101 F
b00000 G
0H
0I
b0101100 J
b00 K
1L
0M
0N
0O
0P
0Q
b00 R
b00 S
0T
b00 U
0V
0W
b00 X
0Y
0Z
0[
b00000 \
b00010 ]
0^
b00000000000000000000000000000010 _
b00000000000000000000000000000000 `
0a
b0100011 b
b0100111 c
b0101011 d
b0111111 e
b0000000 f
b0000001 g
b0000010 h
b0000011 i
b0000101 j
b0000111 k
b0001000 l
b0001011 m
b00000000000000000000000000100000 n
b00000000000000000000000000000100 o
b00000000000000000000000000000010 p
b00000000000000000001000000000000 q
b00000000000000000000000001000000 r
b00000000000000000000000000001000 s
b00000000000000000000000000000011 t
b00000000000000000000000100000000 u
b00000000000000000000000000000001 v
b00000000000000000000000000001010 w
b00000000000000000000000000010110 x
b00000000000000000000000010000000 y
b00000000000000000000000000010000 z
b00000000000000000000000000000000 {
b001110100000 |
b001110110000 }
b00000000000000000000000000000111 ~
b00000000000000000000000000001011 !!
b00000000000000000000000000001100 "!
b00000000000000000000000000010001 #!
b00000000000000000000000000010101 $!
b01 %!
b00000000000000000000000000011110 &!
b00000000000000000000000000000000 '!
b00000000000000000000000000010110 (!
b00000000000000000000000000100000 )!
b10101100010100110011101111110100 *!
b0001111000110101111011001011101001000110011111111101000110110001001011101001010110000001010100101100000001001111101001000011100001111000101010001101101011101101 +!
b00010100111010001100111011001010111000110000010000001101010111100001001000101000011010111011001111001100000100010011001010011000 0!
b1111011110010111100000001011110001110011010111110011100001000011 4!
b0101 6!
b1010 7!
#1
0*
#2
1*
#3
0*
#4
1*
#5
0*
#6
1*
#7
0*
#8
1*
#9
0*
#10
1*
#11
0*
#12
1*
#13
0*
#14
1*
#15
0*
#16
1*
#17
0*
#18
1*
#19
0*
#20
1%
b1111100000 &
b0010011 (
b0010011 )
1*
01
b01000000110011111111000000010011 6
b01000000110011111111000000010011 7
b00000000000000000000010000001100 =
b00000000000000000000010000000000 >
b00000000000000000000010000000000 ?
b01000000110011111111000000000000 @
b00000000000011111111010000001100 A
b00000000000000000000000000011111 B
1D
b11111 E
b01100 F
1H
b0000100 J
b11111 \
b01000 ]
#21
0*
#22
1*
#23
0*
#24
1*
#25
0*
#26
1*
#27
0*
#28
1*
#29
0*
#30
1*
#31
0*
#32
1*
#33
0*
#34
1*
#35
0*
#36
1*
#37
0*
#38
1*
#39
0*
#40
b0011000000 &
b0110111 (
b0110111 )
1*
b01000000011100110101000000110111 6
b01000000011100110101000000110111 7
b011 :
b00000000000000000000010000000111 =
b01000000011100110101000000000000 @
b00000000000000110101110000000110 A
b00000000000000000000000000000110 B
b00110 E
b00111 F
0H
b0000000 J
b11 K
b00110 \
#41
0*
#42
1*
#43
0*
#44
1*
#45
0*
#46
1*
#47
0*
#48
1*
#49
0*
#50
1*
#51
0*
#52
1*
#53
0*
#54
1*
#55
0*
#56
1*
#57
0*
#58
1*
#59
0*
#60
0%
b0010100000 &
b1100011 (
b1100011 )
1*
b01011110011000101001000001100011 6
b01011110011000101001000001100011 7
b101 :
b00000000000000000000010111100110 =
b00000000000000000000010111100000 >
b00000000000000000000010111100000 ?
b01011110011000101001000000000000 @
b00000000000000101001010111100110 A
b00000000000000000000000000000101 B
0D
b00101 E
b00110 F
1H
1I
b10 K
1[
b00101 \
b01011 ]
#61
0*
#62
1*
#63
0*
#64
1*
#65
0*
#66
1*
#67
0*
#68
1*
#69
0*
#70
1*
#71
0*
#72
1*
#73
0*
#74
1*
#75
0*
#76
1*
#77
0*
#78
1*
#79
0*
#80
b1110000001 &
1*
b00001101000111100110000011100011 6
b00001101000111100110000011100011 7
b00000000000000000000000011010001 =
b00000000000000000000000011000001 >
b00000000000000000000100011000000 ?
b00001101000111100110000000000000 @
b00000000000011100110100011010000 A
b00000000000000000000000000011100 B
b11100 E
b10001 F
b00001 G
b11100 \
b00001 ]
#81
0*
#82
1*
#83
0*
#84
1*
#85
0*
#86
1*
#87
0*
#88
1*
#89
0*
#90
1*
#91
0*
#92
1*
#93
0*
#94
1*
#95
0*
#96
1*
#97
0*
#98
1*
#99
0*
#100
b0000000001 &
1*
b01000000000100000100000011100011 6
b01000000000100000100000011100011 7
b00000000000000000000010000000001 =
b00000000000000000000010000000001 >
b00000000000000000000110000000000 ?
b01000000000100000100000000000000 @
b00000000000000000100110000000000 A
b00000000000000000000000000000000 B
b00000 E
b00001 F
b00000 \
b01000 ]
#101
0*
#102
1*
#103
0*
#104
1*
#105
0*
#106
1*
#107
0*
#108
1*
#109
0*
#110
1*
#111
0*
#112
1*
#113
0*
#114
1*
#115
0*
#116
1*
#117
0*
#118
1*
#119
0*
#120
1%
b1111000000 &
b0010011 (
b0010011 )
1*
b01010110000111110011000000010011 6
b01010110000111110011000000010011 7
b000 :
b00000000000000000000010101100001 =
b00000000000000000000010101100000 >
b00000000000000000000010101100000 ?
b01010110000111110011000000000000 @
b00000000000011110011110101100000 A
b00000000000000000000000000011110 B
1D
b11110 E
b00000 G
0I
b0101100 J
b00 K
0[
b11110 \
b01010 ]
#121
0*
#122
1*
#123
0*
#124
1*
#125
0*
#126
1*
#127
0*
#128
1*
#129
0*
#130
1*
#131
0*
#132
1*
#133
0*
#134
1*
#135
0*
#136
1*
#137
0*
#138
1*
#139
0*
#140
b0000000001 &
b1101111 (
b1101111 )
1*
b01110110111000000001000011101111 6
b01110110111000000001000011101111 7
b101 :
b00000000000000000000011101101110 =
b00000000000000000000011101100001 >
b00000000000000000000111101100000 ?
b01110110111000000001000000000000 @
b00000000000000000001011101101110 A
b00000000000000000000000000000000 B
b00000 E
b01110 F
b00001 G
0H
b0000000 J
b10 K
1Z
b00000 \
b01110 ]
#141
0*
#142
1*
#143
0*
#144
1*
#145
0*
#146
1*
#147
0*
#148
1*
#149
0*
#150
1*
#151
0*
#152
1*
#153
0*
#154
1*
#155
0*
#156
1*
#157
0*
#158
1*
#159
0*
#160
b0110100000 &
b0110111 (
b0110111 )
1*
b01010110100001101110000000110111 6
b01010110100001101110000000110111 7
b011 :
b00000000000000000000010101101000 =
b00000000000000000000010101100000 >
b00000000000000000000010101100000 ?
b01010110100001101110000000000000 @
b00000000000001101110010101101000 A
b00000000000000000000000000001101 B
b01101 E
b01000 F
b00000 G
b11 K
0Z
b01101 \
b01010 ]
#161
0*
#162
1*
#163
0*
#164
1*
#165
0*
#166
1*
#167
0*
#168
1*
#169
0*
#170
1*
#171
0*
#172
1*
#173
0*
#174
1*
#175
0*
#176
1*
#177
0*
#178
1*
#179
0*
#180
0%
b0001000000 &
b1100011 (
b1100011 )
1*
b01111100100000010100000001100011 6
b01111100100000010100000001100011 7
b101 :
b00000000000000000000011111001000 =
b00000000000000000000011111000000 >
b00000000000000000000011111000000 ?
b01111100100000010100000000000000 @
b00000000000000010100011111001000 A
b00000000000000000000000000000010 B
0D
b00010 E
1H
1I
b10 K
1[
b00010 \
b01111 ]
#181
0*
#182
1*
#183
0*
#184
1*
#185
0*
#186
1*
#187
0*
#188
1*
#189
0*
#190
1*
#191
0*
#192
1*
#193
0*
#194
1*
#195
0*
#196
1*
#197
0*
#198
1*
#199
0*
#200
b0000000000 &
b1110011 (
b1110011 )
1*
10
b00000000000000000000000001110011 6
b00000000000000000000000001110011 7
b000 :
b00000000000000000000000000000000 =
b00000000000000000000000000000000 >
b00000000000000000000000000000000 ?
b00000000000000000000000000000000 @
b00000000000000000000000000000000 A
b00000000000000000000000000000000 B
b00000 E
b00000 F
0H
0I
b0101100 J
b00 K
0[
b00000 \
b00000 ]
#201
0*
#202
1*
#203
0*
#204
1*
#205
0*
#206
1*
#207
0*
#208
1*
#209
0*
#210
1*
#211
0*
#212
1*
#213
0*
#214
1*
#215
0*
#216
1*
#217
0*
#218
1*
#219
0*
#220
b1110100001 &
b1100011 (
b1100011 )
1*
00
b01101111010111101000000011100011 6
b01101111010111101000000011100011 7
b101 :
b00000000000000000000011011110101 =
b00000000000000000000011011100001 >
b00000000000000000000111011100000 ?
b01101111010111101000000000000000 @
b00000000000011101000111011110100 A
b00000000000000000000000000011101 B
b11101 E
b10101 F
b00001 G
1H
1I
b0000000 J
b10 K
1[
b11101 \
b01101 ]
#221
0*
#222
1*
#223
0*
#224
1*
#225
0*
#226
1*
#227
0*
#228
1*
#229
0*
#230
1*
#231
0*
#232
1*
#233
0*
#234
1*
#235
0*
#236
1*
#237
0*
#238
1*
#239
0*
#240
b1011000001 &
b0100011 (
b0100011 )
1*
b00101101001010110010000010100011 6
b00101101001010110010000010100011 7
b001 :
b00000000000000000000001011010010 =
b00000000000000000000001011000001 >
b00000000000000000000101011000000 ?
b00101101001010110010000000000000 @
b00000000000010110010001011010010 A
b00000000000000000000000000010110 B
b10110 E
b10010 F
b00 K
1V
1W
0[
b10110 \
b00101 ]
#241
0*
#242
1*
#243
0*
#244
1*
#245
0*
#246
1*
#247
0*
#248
1*
#249
0*
#250
1*
#251
0*
#252
1*
#253
0*
#254
1*
#255
0*
#256
1*
#257
0*
#258
1*
#259
0*
#260
b0101100001 &
b1100011 (
b1100011 )
1*
b00000110010101011101000011100011 6
b00000110010101011101000011100011 7
b101 :
b00000000000000000000000001100101 =
b00000000000000000000000001100001 >
b00000000000000000000100001100000 ?
b00000110010101011101000000000000 @
b00000000000001011101100001100100 A
b00000000000000000000000000001011 B
b01011 E
b00101 F
b10 K
0V
0W
1[
b01011 \
b00000 ]
#261
0*
#262
1*
#263
0*
#264
1*
#265
0*
#266
1*
#267
0*
#268
1*
#269
0*
#270
1*
#271
0*
#272
1*
#273
0*
#274
1*
#275
0*
#276
1*
#277
0*
#278
1*
#279
0*
#280
b0100100001 &
1*
b01001001011101001100000011100011 6
b01001001011101001100000011100011 7
b00000000000000000000010010010111 =
b00000000000000000000010010000001 >
b00000000000000000000110010000000 ?
b01001001011101001100000000000000 @
b00000000000001001100110010010110 A
b00000000000000000000000000001001 B
b01001 E
b10111 F
b01001 \
b01001 ]
#281
0*
#282
1*
#283
0*
#284
1*
#285
0*
#286
1*
#287
0*
#288
1*
#289
0*
#290
1*
#291
0*
#292
1*
#293
0*
#294
1*
#295
0*
#296
1*
#297
0*
#298
1*
#299
0*
#300
1%
b1110100000 &
b0010011 (
b0010011 )
1*
b01001010000111101011000000010011 6
b01001010000111101011000000010011 7
b000 :
b00000000000000000000010010100001 =
b00000000000000000000010010100000 >
b00000000000000000000010010100000 ?
b01001010000111101011000000000000 @
b00000000000011101011110010100000 A
b00000000000000000000000000011101 B
1D
b11101 E
b00001 F
b00000 G
0I
b0101100 J
b00 K
0[
b11101 \
#301
0*
#302
1*
#303
0*
#304
1*
#305
0*
#306
1*
#307
0*
#308
1*
#309
0*
#310
1*
#311
0*
#312
1*
#313
0*
#314
1*
#315
0*
#316
1*
#317
0*
#318
1*
#319
0*
#320
b1110000001 &
b1101111 (
b1101111 )
1*
b00010100111011100111000011101111 6
b00010100111011100111000011101111 7
b101 :
b00000000000000000000000101001110 =
b00000000000000000000000101000001 >
b00000000000000000000100101000000 ?
b00010100111011100111000000000000 @
b00000000000011100111000101001110 A
b00000000000000000000000000011100 B
b11100 E
b01110 F
b00001 G
0H
b0000000 J
b10 K
1Z
b11100 \
b00010 ]
#321
0*
#322
1*
#323
0*
#324
1*
#325
0*
#326
1*
#327
0*
#328
1*
#329
0*
#330
1*
#331
0*
#332
1*
#333
0*
#334
1*
#335
0*
#336
1*
#337
0*
#338
1*
#339
0*
#340
b0101000000 &
1*
b00111111111001010001000001101111 6
b00111111111001010001000001101111 7
b00000000000000000000001111111110 =
b00000000000000000000001111100000 >
b00000000000000000000001111100000 ?
b00111111111001010001000000000000 @
b00000000000001010001001111111110 A
b00000000000000000000000000001010 B
b01010 E
b11110 F
b00000 G
b01010 \
b00111 ]
#341
0*
#342
1*
#343
0*
#344
1*
#345
0*
#346
1*
#347
0*
#348
1*
#349
0*
#350
1*
#351
0*
#352
1*
#353
0*
#354
1*
#355
0*
#356
1*
#357
0*
#358
1*
#359
0*
#360
b1000000001 &
b0010011 (
b0010011 )
1*
b00111001011010000010000010010011 6
b00111001011010000010000010010011 7
b000 :
b00000000000000000000001110010110 =
b00000000000000000000001110000001 >
b00000000000000000000101110000000 ?
b00111001011010000010000000000000 @
b00000000000010000010001110010110 A
b00000000000000000000000000010000 B
b10000 E
b10110 F
b00001 G
1H
b0101011 J
b00 K
0Z
b10000 \
#361
0*
#362
1*
#363
0*
#364
1*
#365
0*
#366
1*
#367
0*
#368
1*
#369
0*
#370
1*
#371
0*
#372
1*
#373
0*
#374
1*
#375
0*
#376
1*
#377
0*
#378
1*
#379
0*
#380
b0001100000 &
1*
b01011001000100011100000000010011 6
b01011001000100011100000000010011 7
b00000000000000000000010110010001 =
b00000000000000000000010110000000 >
b00000000000000000000010110000000 ?
b01011001000100011100000000000000 @
b00000000000000011100110110010000 A
b00000000000000000000000000000011 B
b00011 E
b10001 F
b00000 G
b0000010 J
b00011 \
b01011 ]
#381
0*
#382
1*
#383
0*
#384
1*
#385
0*
#386
1*
#387
0*
#388
1*
#389
0*
#390
1*
#391
0*
#392
1*
#393
0*
#394
1*
#395
0*
#396
1*
#397
0*
#398
1*
#399
0*
#400
0%
b0000000000 &
b1110011 (
b1110011 )
1*
1.
b00110000001000000000000001110011 6
b00110000001000000000000001110011 7
b00000000000000000000001100000010 =
b00000000000000000000001100000000 >
b00000000000000000000001100000000 ?
b00110000001000000000000000000000 @
b00000000000000000000001100000010 A
b00000000000000000000000000000000 B
0D
b00000 E
b00010 F
0H
b0101100 J
b00000 \
b00110 ]
#401
0*
#402
1*
#403
0*
#404
1*
#405
0*
#406
1*
#407
0*
#408
1*
#409
0*
#410
1*
#411
0*
#412
1*
#413
0*
#414
1*
#415
0*
#416
1*
#417
0*
#418
1*
#419
0*
#420
b0111000001 &
b0100011 (
b0100011 )
1*
0.
b01101001111101110001000010100011 6
b01101001111101110001000010100011 7
b001 :
b00000000000000000000011010011111 =
b00000000000000000000011010000001 >
b00000000000000000000111010000000 ?
b01101001111101110001000000000000 @
b00000000000001110001111010011110 A
b00000000000000000000000000001110 B
b01110 E
b11111 F
b00001 G
1H
1I
b0000000 J
1V
1W
b01 X
b01110 \
b01101 ]
#421
0*
#422
1*
#423
0*
#424
1*
#425
0*
#426
1*
#427
0*
#428
1*
#429
0*
#430
1*
#431
0*
#432
1*
#433
0*
#434
1*
#435
0*
#436
1*
#437
0*
#438
1*
#439
0*
#440
1%
b1001100000 &
b0110111 (
b0110111 )
1*
b00000000011010011100000000110111 6
b00000000011010011100000000110111 7
b011 :
b00000000000000000000000000000110 =
b00000000000000000000000000000000 >
b00000000000000000000000000000000 ?
b00000000011010011100000000000000 @
b00000000000010011100000000000110 A
b00000000000000000000000000010011 B
1D
b10011 E
b00110 F
b00000 G
0H
0I
b11 K
0V
0W
b00 X
b10011 \
b00000 ]
#441
0*
#442
1*
#443
0*
#444
1*
#445
0*
#446
1*
#447
0*
#448
1*
#449
0*
#450
1*
#451
0*
#452
1*
#453
0*
#454
1*
#455
0*
#456
1*
#457
0*
#458
1*
#459
0*
#460
b0000000001 &
1*
b00010001101000000000000010110111 6
b00010001101000000000000010110111 7
b00000000000000000000000100011010 =
b00000000000000000000000100000001 >
b00000000000000000000100100000000 ?
b00010001101000000000000000000000 @
b00000000000000000000000100011010 A
b00000000000000000000000000000000 B
b00000 E
b11010 F
b00001 G
b00000 \
b00010 ]
#461
0*
#462
1*
#463
0*
#464
1*
#465
0*
#466
1*
#467
0*
#468
1*
#469
0*
#470
1*
#471
0*
#472
1*
#473
0*
#474
1*
#475
0*
#476
1*
#477
0*
#478
1*
#479
0*
#480
0%
b0101000001 &
b0100011 (
b0100011 )
1*
b01110010100101010010000010100011 6
b01110010100101010010000010100011 7
b001 :
b00000000000000000000011100101001 =
b00000000000000000000011100100001 >
b00000000000000000000111100100000 ?
b01110010100101010010000000000000 @
b00000000000001010010111100101000 A
b00000000000000000000000000001010 B
0D
b01010 E
b01001 F
1H
1I
b00 K
1V
1W
b01010 \
b01110 ]
#481
0*
#482
1*
#483
0*
#484
1*
#485
0*
#486
1*
#487
0*
#488
1*
#489
0*
#490
1*
#491
0*
#492
1*
#493
0*
#494
1*
#495
0*
#496
1*
#497
0*
#498
1*
#499
0*
#500
b1011000001 &
1*
b01010010111010110010000010100011 6
b01010010111010110010000010100011 7
b00000000000000000000010100101110 =
b00000000000000000000010100100001 >
b00000000000000000000110100100000 ?
b01010010111010110010000000000000 @
b00000000000010110010010100101110 A
b00000000000000000000000000010110 B
b10110 E
b01110 F
b10110 \
b01010 ]
#501
0*
#502
1*
#503
0*
#504
1*
#505
0*
#506
1*
#507
0*
#508
1*
#509
0*
#510
1*
#511
0*
#512
1*
#513
0*
#514
1*
#515
0*
#516
1*
#517
0*
#518
1*
#519
0*
#520
b1110000001 &
1*
b00111010001111100010000010100011 6
b00111010001111100010000010100011 7
b00000000000000000000001110100011 =
b00000000000000000000001110100001 >
b00000000000000000000101110100000 ?
b00111010001111100010000000000000 @
b00000000000011100010101110100010 A
b00000000000000000000000000011100 B
b11100 E
b00011 F
b11100 \
b00111 ]
#521
0*
#522
1*
#523
0*
#524
1*
#525
0*
#526
1*
#527
0*
#528
1*
#529
0*
#530
1*
#531
0*
#532
1*
#533
0*
#534
1*
#535
0*
#536
1*
#537
0*
#538
1*
#539
0*
#540
b1101100001 &
b1100011 (
b1100011 )
1*
b00111011110011011100000011100011 6
b00111011110011011100000011100011 7
b101 :
b00000000000000000000001110111100 =
b00111011110011011100000000000000 @
b00000000000011011100001110111100 A
b00000000000000000000000000011011 B
b11011 E
b11100 F
b10 K
0V
0W
1[
b11011 \
#541
0*
#542
1*
#543
0*
#544
1*
#545
0*
#546
1*
#547
0*
#548
1*
#549
0*
#550
1*
#551
0*
#552
1*
#553
0*
#554
1*
#555
0*
#556
1*
#557
0*
#558
1*
#559
0*
#560
b0001000001 &
1*
b00111110001100010001000011100011 6
b00111110001100010001000011100011 7
b00000000000000000000001111100011 =
b00000000000000000000001111100001 >
b00000000000000000000101111100000 ?
b00111110001100010001000000000000 @
b00000000000000010001101111100010 A
b00000000000000000000000000000010 B
b00010 E
b00011 F
b00010 \
#561
0*
#562
1*
#563
0*
#564
1*
#565
0*
#566
1*
#567
0*
#568
1*
#569
0*
#570
1*
#571
0*
#572
1*
#573
0*
#574
1*
#575
0*
#576
1*
#577
0*
#578
1*
#579
0*
#580
b0101000001 &
1*
b01111000101001010001000011100011 6
b01111000101001010001000011100011 7
b00000000000000000000011110001010 =
b00000000000000000000011110000001 >
b00000000000000000000111110000000 ?
b01111000101001010001000000000000 @
b00000000000001010001011110001010 A
b00000000000000000000000000001010 B
b01010 E
b01010 F
b01010 \
b01111 ]
#581
0*
#582
1*
#583
0*
#584
1*
#585
0*
#586
1*
#587
0*
#588
1*
#589
0*
#590
1*
#591
0*
#592
1*
#593
0*
#594
1*
#595
0*
#596
1*
#597
0*
#598
1*
#599
0*
#600
b0000000000 &
b1110011 (
b1110011 )
1*
1.
b00110000001000000000000001110011 6
b00110000001000000000000001110011 7
b000 :
b00000000000000000000001100000010 =
b00000000000000000000001100000000 >
b00000000000000000000001100000000 ?
b00110000001000000000000000000000 @
b00000000000000000000001100000010 A
b00000000000000000000000000000000 B
b00000 E
b00010 F
b00000 G
0H
0I
b0101100 J
b00 K
0[
b00000 \
b00110 ]
#601
0*
#602
1*
#603
0*
#604
1*
#605
0*
#606
1*
#607
0*
#608
1*
#609
0*
#610
1*
#611
0*
#612
1*
#613
0*
#614
1*
#615
0*
#616
1*
#617
0*
#618
1*
#619
0*
